{
  "__type__": "cc.SpriteFrame",
  "content": {
    "name": "4001010800_00_stand",
    "texture": "a83f4DzZBIr6tthBSJ7ISx",
    "rect": [
      84,
      96,
      895,
      848
    ],
    "offset": [
      37.5,
      -48
    ],
    "originalSize": [
      988,
      944
    ],
    "capInsets": [
      0,
      0,
      0,
      0
    ]
  }
}