{
  "__type__": "cc.SpriteFrame",
  "content": {
    "name": "bghome_0001",
    "texture": "29q5owOZBKTqkIfNNTuj8T",
    "rect": [
      0,
      0,
      1400,
      1060
    ],
    "offset": [
      0,
      0
    ],
    "originalSize": [
      1400,
      1060
    ],
    "capInsets": [
      0,
      0,
      0,
      0
    ]
  }
}