{
  "__type__": "cc.SpriteFrame",
  "content": {
    "name": "5004042500_00_stand",
    "texture": "177/fIptVDKp+hTLtkzU2g",
    "rect": [
      1,
      19,
      1314,
      1304
    ],
    "offset": [
      -2,
      -9
    ],
    "originalSize": [
      1320,
      1324
    ],
    "capInsets": [
      0,
      0,
      0,
      0
    ]
  }
}