{
  "__type__": "cc.SpriteFrame",
  "content": {
    "name": "4001011900_00_stand",
    "texture": "41mj1KhnBN47zY+xnf0ZQ9",
    "rect": [
      1,
      42,
      807,
      812
    ],
    "offset": [
      -3.5,
      -20
    ],
    "originalSize": [
      816,
      856
    ],
    "capInsets": [
      0,
      0,
      0,
      0
    ]
  }
}