{
  "__type__": "cc.SpriteFrame",
  "content": {
    "name": "4006061700_01_stand",
    "texture": "fa/AIxYcJDL59Dm60/2cUw",
    "rect": [
      0,
      1,
      1467,
      1475
    ],
    "offset": [
      -0.5,
      -0.5
    ],
    "originalSize": [
      1468,
      1476
    ],
    "capInsets": [
      0,
      0,
      0,
      0
    ]
  }
}