{
  "__type__": "cc.SpriteFrame",
  "content": {
    "name": "4005051100_01_stand",
    "texture": "a82qchX/ZI35LvuDb13cg/",
    "rect": [
      0,
      0,
      1059,
      1044
    ],
    "offset": [
      -0.5,
      0
    ],
    "originalSize": [
      1060,
      1044
    ],
    "capInsets": [
      0,
      0,
      0,
      0
    ]
  }
}