{
  "__type__": "cc.SpriteFrame",
  "content": {
    "name": "4002021700_01_stand",
    "texture": "b2ClfRnIBFpK8RGYwAaVyb",
    "rect": [
      1,
      0,
      978,
      1078
    ],
    "offset": [
      0,
      1
    ],
    "originalSize": [
      980,
      1080
    ],
    "capInsets": [
      0,
      0,
      0,
      0
    ]
  }
}