{
  "__type__": "cc.SpriteFrame",
  "content": {
    "name": "4005051300_01_stand",
    "texture": "54uf6Y56tG/rIo2lTNCMPL",
    "rect": [
      1,
      0,
      1044,
      1103
    ],
    "offset": [
      -1,
      0.5
    ],
    "originalSize": [
      1048,
      1104
    ],
    "capInsets": [
      0,
      0,
      0,
      0
    ]
  }
}