{
  "__type__": "cc.SpriteFrame",
  "content": {
    "name": "3002020400_00_stand",
    "texture": "cflz4NMi9Owr5Vm8juRnzk",
    "rect": [
      0,
      32,
      969,
      1007
    ],
    "offset": [
      -5.5,
      -9.5
    ],
    "originalSize": [
      980,
      1052
    ],
    "capInsets": [
      0,
      0,
      0,
      0
    ]
  }
}