{
  "__type__": "cc.SpriteFrame",
  "content": {
    "name": "GE_skeleton",
    "texture": "54+ANI6WZAt4N8MdRl4jdN",
    "rect": [
      2,
      2,
      1020,
      1020
    ],
    "offset": [
      0,
      0
    ],
    "originalSize": [
      1024,
      1024
    ],
    "capInsets": [
      0,
      0,
      0,
      0
    ]
  }
}