{
  "__type__": "cc.SpriteFrame",
  "content": {
    "name": "3005050500_01_adv",
    "texture": "dcJujDd/FHBa7hAMMrsBnE",
    "rect": [
      0,
      1,
      260,
      259
    ],
    "offset": [
      0,
      -0.5
    ],
    "originalSize": [
      260,
      260
    ],
    "capInsets": [
      0,
      0,
      0,
      0
    ]
  }
}