{
  "__type__": "cc.SpriteFrame",
  "content": {
    "name": "4002021800_00_face",
    "texture": "95qQ+pNcdKHZ1x5Pm6jJ53",
    "rect": [
      8,
      5,
      98,
      102
    ],
    "offset": [
      2,
      -1
    ],
    "originalSize": [
      110,
      110
    ],
    "capInsets": [
      0,
      0,
      0,
      0
    ]
  }
}