{
  "__type__": "sp.SkeletonData",
  "_name": "test",
  "skeletonJsonStr": "{\r\n  \"skeleton\": {\r\n    \"hash\": \"eIOWFNviz598YYmx3RSZ/Rnlehs\",\r\n    \"spine\": \"3.6.38\",\r\n    \"width\": 501.43,\r\n    \"height\": 501.43,\r\n    \"images\": \"\"\r\n  },\r\n  \"bones\": [\r\n    { \"name\": \"root\", \"x\": -1228.96, \"y\": 2574.61 },\r\n    { \"name\": \"bg\", \"parent\": \"root\" },\r\n    {\r\n      \"name\": \"flash\",\r\n      \"parent\": \"root\",\r\n      \"scaleX\": -6.529,\r\n      \"scaleY\": -6.529,\r\n      \"color\": \"ffffffff\"\r\n    },\r\n    { \"name\": \"hit\", \"parent\": \"root\" },\r\n    { \"name\": \"par\", \"parent\": \"root\" },\r\n    { \"name\": \"ring\", \"parent\": \"root\" },\r\n    { \"name\": \"shock_wave\", \"parent\": \"root\" }\r\n  ],\r\n  \"slots\": [\r\n    {\r\n      \"name\": \"co_bg2\",\r\n      \"bone\": \"bg\",\r\n      \"attachment\": \"co_bg\",\r\n      \"blend\": \"additive\"\r\n    },\r\n    {\r\n      \"name\": \"co_bg\",\r\n      \"bone\": \"flash\",\r\n      \"attachment\": \"co_bg\",\r\n      \"blend\": \"additive\"\r\n    },\r\n    {\r\n      \"name\": \"co_hit_new\",\r\n      \"bone\": \"hit\",\r\n      \"attachment\": \"co_hit_new\",\r\n      \"blend\": \"additive\"\r\n    },\r\n    {\r\n      \"name\": \"co_par\",\r\n      \"bone\": \"par\",\r\n      \"attachment\": \"co_par\",\r\n      \"blend\": \"additive\"\r\n    },\r\n    {\r\n      \"name\": \"co_ring\",\r\n      \"bone\": \"ring\",\r\n      \"attachment\": \"co_ring\",\r\n      \"blend\": \"additive\"\r\n    },\r\n    {\r\n      \"name\": \"co_shock_wave\",\r\n      \"bone\": \"shock_wave\",\r\n      \"attachment\": \"co_shock_wave\",\r\n      \"blend\": \"additive\"\r\n    }\r\n  ],\r\n  \"skins\": {\r\n    \"default\": {\r\n      \"co_bg\": {\r\n        \"co_bg\": {\r\n          \"scaleX\": 0.6,\r\n          \"scaleY\": 0.6,\r\n          \"width\": 128,\r\n          \"height\": 128\r\n        }\r\n      },\r\n      \"co_bg2\": {\r\n        \"co_bg\": { \"width\": 128, \"height\": 128 }\r\n      },\r\n      \"co_hit_new\": {\r\n        \"co_hit_new\": {\r\n          \"width\": 251,\r\n          \"height\": 256\r\n        }\r\n      },\r\n      \"co_par\": {\r\n        \"co_par\": { \"width\": 69, \"height\": 69 }\r\n      },\r\n      \"co_ring\": {\r\n        \"co_ring\": { \"width\": 234, \"height\": 234 }\r\n      },\r\n      \"co_shock_wave\": {\r\n        \"co_shock_wave\": {\r\n          \"width\": 262,\r\n          \"height\": 260\r\n        }\r\n      }\r\n    }\r\n  },\r\n  \"animations\": {\r\n    \"test\": {\r\n      \"slots\": {\r\n        \"co_bg\": {\r\n          \"color\": [\r\n            { \"time\": 0, \"color\": \"ffffff00\" },\r\n            { \"time\": 0.0667, \"color\": \"ffffffff\" },\r\n            { \"time\": 0.1667, \"color\": \"ffffff00\" }\r\n          ]\r\n        },\r\n        \"co_bg2\": {\r\n          \"color\": [\r\n            { \"time\": 0, \"color\": \"ffffff00\" },\r\n            { \"time\": 0.0667, \"color\": \"ffffffff\", \"curve\": \"stepped\" },\r\n            { \"time\": 0.2, \"color\": \"ffffffff\" },\r\n            { \"time\": 0.4333, \"color\": \"ffffff00\" }\r\n          ]\r\n        },\r\n        \"co_hit_new\": {\r\n          \"color\": [\r\n            { \"time\": 0, \"color\": \"ffffff00\" },\r\n            { \"time\": 0.0667, \"color\": \"ffffffff\", \"curve\": \"stepped\" },\r\n            { \"time\": 0.1333, \"color\": \"ffffffff\" },\r\n            { \"time\": 0.2667, \"color\": \"ffffff00\" }\r\n          ]\r\n        },\r\n        \"co_ring\": {\r\n          \"color\": [\r\n            { \"time\": 0, \"color\": \"ffffff00\" },\r\n            { \"time\": 0.0667, \"color\": \"ffffffff\" },\r\n            { \"time\": 0.2333, \"color\": \"ffffff00\" }\r\n          ]\r\n        },\r\n        \"co_shock_wave\": {\r\n          \"color\": [\r\n            { \"time\": 0, \"color\": \"ffffff00\" },\r\n            { \"time\": 0.0667, \"color\": \"ffffffff\", \"curve\": \"stepped\" },\r\n            { \"time\": 0.1333, \"color\": \"ffffffff\" },\r\n            { \"time\": 0.2333, \"color\": \"ffffff00\" }\r\n          ]\r\n        }\r\n      },\r\n      \"bones\": {\r\n        \"flash\": {\r\n          \"scale\": [\r\n            { \"time\": 0, \"x\": -0.077, \"y\": -0.077 },\r\n            { \"time\": 0.0667, \"x\": -0.153, \"y\": -0.153 },\r\n            { \"time\": 0.1333, \"x\": -0.306, \"y\": -0.306 }\r\n          ]\r\n        },\r\n        \"bg\": {\r\n          \"scale\": [\r\n            { \"time\": 0, \"x\": 0, \"y\": 0 },\r\n            { \"time\": 0.0667, \"x\": 5, \"y\": 5 },\r\n            { \"time\": 0.4, \"x\": 6, \"y\": 6 }\r\n          ]\r\n        },\r\n        \"hit\": {\r\n          \"scale\": [\r\n            { \"time\": 0, \"x\": 0.5, \"y\": 0.5 },\r\n            { \"time\": 0.0667, \"x\": 2, \"y\": 2 },\r\n            { \"time\": 0.2333, \"x\": 2.5, \"y\": 2.5 }\r\n          ]\r\n        },\r\n        \"ring\": {\r\n          \"scale\": [\r\n            { \"time\": 0, \"x\": 0.5, \"y\": 0.5 },\r\n            { \"time\": 0.0667, \"x\": 1.5, \"y\": 1.5 },\r\n            { \"time\": 0.2, \"x\": 2.7, \"y\": 2.7 }\r\n          ]\r\n        },\r\n        \"shock_wave\": {\r\n          \"scale\": [\r\n            { \"time\": 0, \"x\": 0, \"y\": 0 },\r\n            { \"time\": 0.2, \"x\": 2.5, \"y\": 2.5 }\r\n          ]\r\n        },\r\n        \"par\": {\r\n          \"translate\": [\r\n            { \"time\": 0, \"x\": 0, \"y\": 0 },\r\n            { \"time\": 0.4667, \"x\": -88.71, \"y\": -492.07 }\r\n          ],\r\n          \"scale\": [\r\n            { \"time\": 0, \"x\": 0, \"y\": 0 },\r\n            { \"time\": 0.0667, \"x\": 0.8, \"y\": 0.8 },\r\n            { \"time\": 0.1333, \"x\": 0, \"y\": 0 },\r\n            { \"time\": 0.2, \"x\": 0.7, \"y\": 0.7 },\r\n            { \"time\": 0.2667, \"x\": 0, \"y\": 0 },\r\n            { \"time\": 0.3667, \"x\": 1, \"y\": 1 },\r\n            { \"time\": 0.4667, \"x\": 0, \"y\": 0 }\r\n          ]\r\n        }\r\n      }\r\n    }\r\n  }\r\n}\r\n",
  "_skeletonJson": {
    "skeleton": {
      "hash": "eIOWFNviz598YYmx3RSZ/Rnlehs",
      "spine": "3.6.38",
      "width": 501.43,
      "height": 501.43,
      "images": ""
    },
    "bones": [
      {
        "name": "root",
        "x": -1228.96,
        "y": 2574.61
      },
      {
        "name": "bg",
        "parent": "root"
      },
      {
        "name": "flash",
        "parent": "root",
        "scaleX": -6.529,
        "scaleY": -6.529,
        "color": "ffffffff"
      },
      {
        "name": "hit",
        "parent": "root"
      },
      {
        "name": "par",
        "parent": "root"
      },
      {
        "name": "ring",
        "parent": "root"
      },
      {
        "name": "shock_wave",
        "parent": "root"
      }
    ],
    "slots": [
      {
        "name": "co_bg2",
        "bone": "bg",
        "attachment": "co_bg",
        "blend": "additive"
      },
      {
        "name": "co_bg",
        "bone": "flash",
        "attachment": "co_bg",
        "blend": "additive"
      },
      {
        "name": "co_hit_new",
        "bone": "hit",
        "attachment": "co_hit_new",
        "blend": "additive"
      },
      {
        "name": "co_par",
        "bone": "par",
        "attachment": "co_par",
        "blend": "additive"
      },
      {
        "name": "co_ring",
        "bone": "ring",
        "attachment": "co_ring",
        "blend": "additive"
      },
      {
        "name": "co_shock_wave",
        "bone": "shock_wave",
        "attachment": "co_shock_wave",
        "blend": "additive"
      }
    ],
    "skins": {
      "default": {
        "co_bg": {
          "co_bg": {
            "scaleX": 0.6,
            "scaleY": 0.6,
            "width": 128,
            "height": 128
          }
        },
        "co_bg2": {
          "co_bg": {
            "width": 128,
            "height": 128
          }
        },
        "co_hit_new": {
          "co_hit_new": {
            "width": 251,
            "height": 256
          }
        },
        "co_par": {
          "co_par": {
            "width": 69,
            "height": 69
          }
        },
        "co_ring": {
          "co_ring": {
            "width": 234,
            "height": 234
          }
        },
        "co_shock_wave": {
          "co_shock_wave": {
            "width": 262,
            "height": 260
          }
        }
      }
    },
    "animations": {
      "test": {
        "slots": {
          "co_bg": {
            "color": [
              {
                "time": 0,
                "color": "ffffff00"
              },
              {
                "time": 0.0667,
                "color": "ffffffff"
              },
              {
                "time": 0.1667,
                "color": "ffffff00"
              }
            ]
          },
          "co_bg2": {
            "color": [
              {
                "time": 0,
                "color": "ffffff00"
              },
              {
                "time": 0.0667,
                "color": "ffffffff",
                "curve": "stepped"
              },
              {
                "time": 0.2,
                "color": "ffffffff"
              },
              {
                "time": 0.4333,
                "color": "ffffff00"
              }
            ]
          },
          "co_hit_new": {
            "color": [
              {
                "time": 0,
                "color": "ffffff00"
              },
              {
                "time": 0.0667,
                "color": "ffffffff",
                "curve": "stepped"
              },
              {
                "time": 0.1333,
                "color": "ffffffff"
              },
              {
                "time": 0.2667,
                "color": "ffffff00"
              }
            ]
          },
          "co_ring": {
            "color": [
              {
                "time": 0,
                "color": "ffffff00"
              },
              {
                "time": 0.0667,
                "color": "ffffffff"
              },
              {
                "time": 0.2333,
                "color": "ffffff00"
              }
            ]
          },
          "co_shock_wave": {
            "color": [
              {
                "time": 0,
                "color": "ffffff00"
              },
              {
                "time": 0.0667,
                "color": "ffffffff",
                "curve": "stepped"
              },
              {
                "time": 0.1333,
                "color": "ffffffff"
              },
              {
                "time": 0.2333,
                "color": "ffffff00"
              }
            ]
          }
        },
        "bones": {
          "flash": {
            "scale": [
              {
                "time": 0,
                "x": -0.077,
                "y": -0.077
              },
              {
                "time": 0.0667,
                "x": -0.153,
                "y": -0.153
              },
              {
                "time": 0.1333,
                "x": -0.306,
                "y": -0.306
              }
            ]
          },
          "bg": {
            "scale": [
              {
                "time": 0,
                "x": 0,
                "y": 0
              },
              {
                "time": 0.0667,
                "x": 5,
                "y": 5
              },
              {
                "time": 0.4,
                "x": 6,
                "y": 6
              }
            ]
          },
          "hit": {
            "scale": [
              {
                "time": 0,
                "x": 0.5,
                "y": 0.5
              },
              {
                "time": 0.0667,
                "x": 2,
                "y": 2
              },
              {
                "time": 0.2333,
                "x": 2.5,
                "y": 2.5
              }
            ]
          },
          "ring": {
            "scale": [
              {
                "time": 0,
                "x": 0.5,
                "y": 0.5
              },
              {
                "time": 0.0667,
                "x": 1.5,
                "y": 1.5
              },
              {
                "time": 0.2,
                "x": 2.7,
                "y": 2.7
              }
            ]
          },
          "shock_wave": {
            "scale": [
              {
                "time": 0,
                "x": 0,
                "y": 0
              },
              {
                "time": 0.2,
                "x": 2.5,
                "y": 2.5
              }
            ]
          },
          "par": {
            "translate": [
              {
                "time": 0,
                "x": 0,
                "y": 0
              },
              {
                "time": 0.4667,
                "x": -88.71,
                "y": -492.07
              }
            ],
            "scale": [
              {
                "time": 0,
                "x": 0,
                "y": 0
              },
              {
                "time": 0.0667,
                "x": 0.8,
                "y": 0.8
              },
              {
                "time": 0.1333,
                "x": 0,
                "y": 0
              },
              {
                "time": 0.2,
                "x": 0.7,
                "y": 0.7
              },
              {
                "time": 0.2667,
                "x": 0,
                "y": 0
              },
              {
                "time": 0.3667,
                "x": 1,
                "y": 1
              },
              {
                "time": 0.4667,
                "x": 0,
                "y": 0
              }
            ]
          }
        }
      }
    }
  },
  "_atlasText": "\ntest.png\nsize: 1024,512\nformat: RGBA8888\nfilter: Linear,Linear\nrepeat: none\nco_bg\n  rotate: false\n  xy: 519, 370\n  size: 128, 128\n  orig: 128, 128\n  offset: 0, 0\n  index: -1\nco_hit_new\n  rotate: false\n  xy: 266, 242\n  size: 251, 256\n  orig: 251, 256\n  offset: 0, 0\n  index: -1\nco_par\n  rotate: false\n  xy: 519, 299\n  size: 69, 69\n  orig: 69, 69\n  offset: 0, 0\n  index: -1\nco_ring\n  rotate: false\n  xy: 2, 2\n  size: 234, 234\n  orig: 234, 234\n  offset: 0, 0\n  index: -1\nco_shock_wave\n  rotate: false\n  xy: 2, 238\n  size: 262, 260\n  orig: 262, 260\n  offset: 0, 0\n  index: -1\n",
  "textures": [
    {
      "__uuid__": "19w4BtHP1HDYLqAYL/v0WC"
    }
  ],
  "textureNames": [
    "test.png"
  ]
}