{
  "__type__": "cc.SpriteFrame",
  "content": {
    "name": "4003030100_00_stand",
    "texture": "24prSdVOFI+L3ddg/Dqqsp",
    "rect": [
      71,
      33,
      921,
      970
    ],
    "offset": [
      27.5,
      -16
    ],
    "originalSize": [
      1008,
      1004
    ],
    "capInsets": [
      0,
      0,
      0,
      0
    ]
  }
}