{
  "__type__": "cc.SpriteFrame",
  "content": {
    "name": "4004041900_01_stand",
    "texture": "66x3erfYhP/6xC67FIj3+m",
    "rect": [
      0,
      1,
      1032,
      909
    ],
    "offset": [
      0,
      0.5
    ],
    "originalSize": [
      1032,
      912
    ],
    "capInsets": [
      0,
      0,
      0,
      0
    ]
  }
}