{
  "__type__": "cc.SpriteFrame",
  "content": {
    "name": "4001012300_00_adv",
    "texture": "06nO6B4DpCLoILhKRejQfj",
    "rect": [
      0,
      0,
      256,
      260
    ],
    "offset": [
      -2,
      0
    ],
    "originalSize": [
      260,
      260
    ],
    "capInsets": [
      0,
      0,
      0,
      0
    ]
  }
}