{
  "__type__": "cc.SpriteFrame",
  "content": {
    "name": "4006061700_01_adv",
    "texture": "53weqNn+dOja2l3wul91G+",
    "rect": [
      0,
      19,
      260,
      241
    ],
    "offset": [
      0,
      -9.5
    ],
    "originalSize": [
      260,
      260
    ],
    "capInsets": [
      0,
      0,
      0,
      0
    ]
  }
}