{
  "__type__": "cc.SpriteFrame",
  "content": {
    "name": "5006060600_01_adv",
    "texture": "269jr65fNC+qO/feF+azF2",
    "rect": [
      0,
      50,
      260,
      210
    ],
    "offset": [
      0,
      -25
    ],
    "originalSize": [
      260,
      260
    ],
    "capInsets": [
      0,
      0,
      0,
      0
    ]
  }
}