{
  "__type__": "cc.SpriteFrame",
  "content": {
    "name": "2002021500_00_adv",
    "texture": "e22X5kaS9E05rXNDhPzGhX",
    "rect": [
      13,
      26,
      247,
      234
    ],
    "offset": [
      6.5,
      -13
    ],
    "originalSize": [
      260,
      260
    ],
    "capInsets": [
      0,
      0,
      0,
      0
    ]
  }
}