{
  "__type__": "cc.SpriteFrame",
  "content": {
    "name": "5006060600_00_stand",
    "texture": "26pITVmMxDnLoclHctk9Ul",
    "rect": [
      1,
      1,
      1149,
      1126
    ],
    "offset": [
      -50.5,
      0
    ],
    "originalSize": [
      1252,
      1128
    ],
    "capInsets": [
      0,
      0,
      0,
      0
    ]
  }
}