{
  "__type__": "cc.SpriteFrame",
  "content": {
    "name": "bg_00130004",
    "texture": "a2eHFzWSxNMrL7qRPyFYsN",
    "rect": [
      0,
      0,
      1400,
      1060
    ],
    "offset": [
      0,
      0
    ],
    "originalSize": [
      1400,
      1060
    ],
    "capInsets": [
      0,
      0,
      0,
      0
    ]
  }
}