{
  "__type__": "cc.SpriteFrame",
  "content": {
    "name": "ef_cha_002_slash_f23",
    "texture": "5fxW6NMlRNMoy4YlGoIzyg",
    "rect": [
      2,
      2,
      478,
      154
    ],
    "offset": [
      -15,
      49
    ],
    "originalSize": [
      512,
      256
    ],
    "capInsets": [
      0,
      0,
      0,
      0
    ]
  }
}