{
  "__type__": "cc.SpriteFrame",
  "content": {
    "name": "4006061500_00_stand",
    "texture": "05oZsJH8dGeZMx5UiknJ94",
    "rect": [
      32,
      7,
      888,
      968
    ],
    "offset": [
      12.5,
      -3.5
    ],
    "originalSize": [
      927,
      975
    ],
    "capInsets": [
      0,
      0,
      0,
      0
    ]
  }
}