[
  {
    "__type__": "cc.ParticleAsset",
    "_name": "fire3",
    "_native": ".plist",
    "spriteFrame": {
      "__uuid__": "93qIkBXAJKcpmytyx9sevX"
    }
  },
  {
    "__type__": "cc.SpriteFrame",
    "content": {
      "name": "particle_texture",
      "texture": "1emuX5ifJAU6mkLMPoVont",
      "rect": [
        1,
        1,
        29,
        29
      ],
      "offset": [
        -0.5,
        0.5
      ],
      "originalSize": [
        32,
        32
      ],
      "capInsets": [
        0,
        0,
        0,
        0
      ]
    }
  }
]