{
  "__type__": "cc.SpriteFrame",
  "content": {
    "name": "4005099900_00_adv",
    "texture": "01Sdc83LtMfIiiCGVxLh4S",
    "rect": [
      0,
      50,
      260,
      210
    ],
    "offset": [
      0,
      -25
    ],
    "originalSize": [
      260,
      260
    ],
    "capInsets": [
      0,
      0,
      0,
      0
    ]
  }
}