{
  "__type__": "cc.SpriteFrame",
  "content": {
    "name": "5002021300_00_adv",
    "texture": "6a9cwALcBMZ43bqRiudGHq",
    "rect": [
      0,
      50,
      260,
      210
    ],
    "offset": [
      0,
      -25
    ],
    "originalSize": [
      260,
      260
    ],
    "capInsets": [
      0,
      0,
      0,
      0
    ]
  }
}