{
  "__type__": "cc.SpriteFrame",
  "content": {
    "name": "bg_00060003",
    "texture": "55k1OoOkFKH7/uiKsXm0nB",
    "rect": [
      0,
      0,
      2700,
      1800
    ],
    "offset": [
      0,
      0
    ],
    "originalSize": [
      2700,
      1800
    ],
    "capInsets": [
      0,
      0,
      0,
      0
    ]
  }
}