{
  "__type__": "cc.SpriteFrame",
  "content": {
    "name": "5006060700_00_stand",
    "texture": "28x2TubxVPzIJDGMubnduV",
    "rect": [
      1,
      66,
      926,
      958
    ],
    "offset": [
      -18,
      -33
    ],
    "originalSize": [
      964,
      1024
    ],
    "capInsets": [
      0,
      0,
      0,
      0
    ]
  }
}