{
  "__type__": "cc.SpriteFrame",
  "content": {
    "name": "5003030600_01_adv",
    "texture": "9eVJZ6Oc1CjIzf/MPzcmDH",
    "rect": [
      0,
      13,
      260,
      247
    ],
    "offset": [
      0,
      -6.5
    ],
    "originalSize": [
      260,
      260
    ],
    "capInsets": [
      0,
      0,
      0,
      0
    ]
  }
}