{
  "__type__": "cc.SpriteFrame",
  "content": {
    "name": "5003030600_01_face",
    "texture": "91ZzFcbr9GaaZ4oSkEikTH",
    "rect": [
      3,
      5,
      103,
      102
    ],
    "offset": [
      -0.5,
      -1
    ],
    "originalSize": [
      110,
      110
    ],
    "capInsets": [
      0,
      0,
      0,
      0
    ]
  }
}