[
  {
    "__type__": "cc.SpriteFrame",
    "content": {
      "name": "default_btn_disabled",
      "texture": "71VhFCTINJM6/Ky3oX9nBT",
      "rect": [
        0,
        0,
        40,
        40
      ],
      "offset": [
        0,
        0
      ],
      "originalSize": [
        40,
        40
      ],
      "capInsets": [
        12,
        12,
        12,
        12
      ]
    }
  },
  [
    {
      "__type__": "cc.Prefab",
      "_name": "UnitIcon",
      "data": {
        "__id__": 1
      }
    },
    {
      "__type__": "cc.Node",
      "_name": "UnitIcon",
      "_children": [
        {
          "__id__": 2
        },
        {
          "__id__": 4
        },
        {
          "__id__": 6
        },
        {
          "__id__": 8
        }
      ],
      "_level": 1,
      "_components": [
        {
          "__type__": "76cf1HURtFE0KqliL8hfqga",
          "node": {
            "__id__": 1
          },
          "base": {
            "__id__": 3
          },
          "face": {
            "__id__": 5
          },
          "frame": {
            "__id__": 7
          },
          "button": {
            "__id__": 9
          },
          "baseTextures": [
            {
              "__uuid__": "47m34g/qNJ9pDwqnin8y1h"
            },
            {
              "__uuid__": "e0ANNYqY1EzK1aUf4tjfiI"
            },
            {
              "__uuid__": "ca2nVc4n5FL5+bcOeHl3i8"
            },
            {
              "__uuid__": "79gbGQM81Pi5+VwBlCLiIg"
            }
          ],
          "frameTextures": [
            {
              "__uuid__": "ccfMYoSWVJYZ3hLVVArQB1"
            },
            {
              "__uuid__": "dbf1ZLNO1GpojNQL3EAe2O"
            },
            {
              "__uuid__": "26WMWWqEREjrS+qC3/T7gO"
            },
            {
              "__uuid__": "3bFzcOPX1G46BETrJd6KPG"
            }
          ]
        }
      ],
      "_prefab": {
        "__type__": "cc.PrefabInfo",
        "root": {
          "__id__": 1
        },
        "asset": {
          "__uuid__": "4feU+VHn1KloR7gYUrBVHC"
        },
        "fileId": "390mD6Hi5BMrpEdehePzzj"
      },
      "_contentSize": {
        "__type__": "cc.Size",
        "width": 110,
        "height": 110
      },
      "_scale": {
        "__type__": "cc.Vec3",
        "x": 1,
        "y": 1,
        "z": 1
      }
    },
    {
      "__type__": "cc.Node",
      "_name": "base",
      "_parent": {
        "__id__": 1
      },
      "_level": 4,
      "_components": [
        {
          "__id__": 3
        }
      ],
      "_prefab": {
        "__type__": "cc.PrefabInfo",
        "root": {
          "__id__": 1
        },
        "asset": {
          "__uuid__": "4feU+VHn1KloR7gYUrBVHC"
        },
        "fileId": "6ePUDeavNJjLABVQ36T5VW"
      },
      "_contentSize": {
        "__type__": "cc.Size",
        "width": 103,
        "height": 102
      },
      "_scale": {
        "__type__": "cc.Vec3",
        "x": 1,
        "y": 1,
        "z": 1
      }
    },
    {
      "__type__": "cc.Sprite",
      "node": {
        "__id__": 2
      }
    },
    {
      "__type__": "cc.Node",
      "_name": "face",
      "_parent": {
        "__id__": 1
      },
      "_level": 3,
      "_components": [
        {
          "__id__": 5
        }
      ],
      "_prefab": {
        "__type__": "cc.PrefabInfo",
        "root": {
          "__id__": 1
        },
        "asset": {
          "__uuid__": "4feU+VHn1KloR7gYUrBVHC"
        },
        "fileId": "31QiDjcORARYG/zCjpwIXW"
      },
      "_color": {
        "__type__": "cc.Color",
        "r": 230,
        "g": 230,
        "b": 230
      },
      "_contentSize": {
        "__type__": "cc.Size",
        "width": 97,
        "height": 102
      },
      "_scale": {
        "__type__": "cc.Vec3",
        "x": 1,
        "y": 1,
        "z": 1
      }
    },
    {
      "__type__": "cc.Sprite",
      "node": {
        "__id__": 4
      }
    },
    {
      "__type__": "cc.Node",
      "_name": "frame",
      "_parent": {
        "__id__": 1
      },
      "_level": 4,
      "_components": [
        {
          "__id__": 7
        }
      ],
      "_prefab": {
        "__type__": "cc.PrefabInfo",
        "root": {
          "__id__": 1
        },
        "asset": {
          "__uuid__": "4feU+VHn1KloR7gYUrBVHC"
        },
        "fileId": "97xZc/uJpGBIET957pIhGY"
      },
      "_contentSize": {
        "__type__": "cc.Size",
        "width": 110,
        "height": 110
      },
      "_scale": {
        "__type__": "cc.Vec3",
        "x": 1,
        "y": 1,
        "z": 1
      }
    },
    {
      "__type__": "cc.Sprite",
      "node": {
        "__id__": 6
      }
    },
    {
      "__type__": "cc.Node",
      "_name": "button",
      "_parent": {
        "__id__": 1
      },
      "_level": 3,
      "_components": [
        {
          "__id__": 9
        }
      ],
      "_prefab": {
        "__type__": "cc.PrefabInfo",
        "root": {
          "__id__": 1
        },
        "asset": {
          "__uuid__": "4feU+VHn1KloR7gYUrBVHC"
        },
        "fileId": "82Kmkg9ddAmJUiyzWbFXwT"
      },
      "_contentSize": {
        "__type__": "cc.Size",
        "width": 110,
        "height": 110
      },
      "_scale": {
        "__type__": "cc.Vec3",
        "x": 1,
        "y": 1,
        "z": 1
      }
    },
    {
      "__type__": "cc.Button",
      "node": {
        "__id__": 8
      },
      "_N$transition": 1,
      "transition": 1,
      "_N$normalColor": {
        "__type__": "cc.Color",
        "r": 230,
        "g": 230,
        "b": 230
      },
      "_N$pressedColor": {
        "__type__": "cc.Color",
        "r": 200,
        "g": 200,
        "b": 200
      },
      "pressedColor": {
        "__type__": "cc.Color",
        "r": 200,
        "g": 200,
        "b": 200
      },
      "_N$disabledColor": {
        "__type__": "cc.Color",
        "r": 120,
        "g": 120,
        "b": 120,
        "a": 200
      },
      "_N$normalSprite": {
        "__uuid__": "f0BIwQ8D5Ml7nTNQbh1YlS"
      },
      "_N$pressedSprite": {
        "__uuid__": "e97GVMl6JHh5Ml5qEDdSGa"
      },
      "pressedSprite": {
        "__uuid__": "e97GVMl6JHh5Ml5qEDdSGa"
      },
      "_N$hoverSprite": {
        "__uuid__": "f0BIwQ8D5Ml7nTNQbh1YlS"
      },
      "hoverSprite": {
        "__uuid__": "f0BIwQ8D5Ml7nTNQbh1YlS"
      },
      "_N$disabledSprite": {
        "__uuid__": "29FYIk+N1GYaeWH/q1NxQO"
      },
      "_N$target": {
        "__id__": 4
      }
    }
  ],
  {
    "__type__": "cc.SpriteFrame",
    "content": {
      "name": "default_btn_pressed",
      "texture": "b4P/PCArtIdIH38t6mlw8Y",
      "rect": [
        0,
        0,
        40,
        40
      ],
      "offset": [
        0,
        0
      ],
      "originalSize": [
        40,
        40
      ],
      "capInsets": [
        12,
        12,
        12,
        12
      ]
    }
  },
  {
    "__type__": "cc.SpriteFrame",
    "content": {
      "name": "default_btn_normal",
      "texture": "e8Ueib+qJEhL6mXAHdnwbi",
      "rect": [
        0,
        0,
        40,
        40
      ],
      "offset": [
        0,
        0
      ],
      "originalSize": [
        40,
        40
      ],
      "capInsets": [
        12,
        12,
        12,
        12
      ]
    }
  }
]