{
  "__type__": "cc.SpriteFrame",
  "content": {
    "name": "4005050200_01_adv",
    "texture": "fa9ac2yfdN1K5mamDveb33",
    "rect": [
      0,
      19,
      260,
      241
    ],
    "offset": [
      0,
      -9.5
    ],
    "originalSize": [
      260,
      260
    ],
    "capInsets": [
      0,
      0,
      0,
      0
    ]
  }
}