{
  "__type__": "cc.SpriteFrame",
  "content": {
    "name": "4006061500_01_adv",
    "texture": "d3C+2saxxFbpUKicePO2JO",
    "rect": [
      0,
      48,
      251,
      212
    ],
    "offset": [
      -4.5,
      -24
    ],
    "originalSize": [
      260,
      260
    ],
    "capInsets": [
      0,
      0,
      0,
      0
    ]
  }
}