{
  "__type__": "cc.SpriteFrame",
  "content": {
    "name": "5001011801_01_adv",
    "texture": "072IbWMJZO77PlJU0zbgjE",
    "rect": [
      0,
      35,
      260,
      225
    ],
    "offset": [
      0,
      -17.5
    ],
    "originalSize": [
      260,
      260
    ],
    "capInsets": [
      0,
      0,
      0,
      0
    ]
  }
}