{
  "__type__": "cc.SpriteFrame",
  "content": {
    "name": "4005050200_00_stand",
    "texture": "36V86E5t1H6Yk47VgKom27",
    "rect": [
      67,
      81,
      982,
      901
    ],
    "offset": [
      0,
      -39.5
    ],
    "originalSize": [
      1116,
      984
    ],
    "capInsets": [
      0,
      0,
      0,
      0
    ]
  }
}