{
  "__type__": "cc.SpriteFrame",
  "content": {
    "name": "4002020100_00_adv",
    "texture": "00YK4w3YtGMJnemtKYDpZS",
    "rect": [
      0,
      49,
      260,
      211
    ],
    "offset": [
      0,
      -24.5
    ],
    "originalSize": [
      260,
      260
    ],
    "capInsets": [
      0,
      0,
      0,
      0
    ]
  }
}