{
  "__type__": "cc.SpriteFrame",
  "content": {
    "name": "4001012501_00_stand",
    "texture": "a4BQ6iWMNA27uUF5sEfSEj",
    "rect": [
      14,
      1,
      1168,
      1140
    ],
    "offset": [
      6,
      21
    ],
    "originalSize": [
      1184,
      1184
    ],
    "capInsets": [
      0,
      0,
      0,
      0
    ]
  }
}