{
  "__type__": "cc.SpriteFrame",
  "content": {
    "name": "UnitStand",
    "texture": "34f95+7MRLhZJy35hOZ05P",
    "rect": [
      190,
      1,
      966,
      1230
    ],
    "offset": [
      95,
      0
    ],
    "originalSize": [
      1156,
      1232
    ],
    "capInsets": [
      0,
      0,
      0,
      0
    ]
  }
}