{
  "__type__": "cc.SpriteFrame",
  "content": {
    "name": "bg_00160002",
    "texture": "c022+OdpJM3rOjo2/HDSgC",
    "rect": [
      0,
      0,
      1400,
      1060
    ],
    "offset": [
      0,
      0
    ],
    "originalSize": [
      1400,
      1060
    ],
    "capInsets": [
      0,
      0,
      0,
      0
    ]
  }
}