{
  "__type__": "cc.SpriteFrame",
  "content": {
    "name": "4001012300_01_adv",
    "texture": "f17kTBcCdP/rTKTTMChPvA",
    "rect": [
      0,
      0,
      255,
      260
    ],
    "offset": [
      -2.5,
      0
    ],
    "originalSize": [
      260,
      260
    ],
    "capInsets": [
      0,
      0,
      0,
      0
    ]
  }
}