{
  "__type__": "cc.SpriteFrame",
  "content": {
    "name": "5001010600_00_face",
    "texture": "80fsCdJfhBlpmzlx7ADT5q",
    "rect": [
      4,
      7,
      102,
      100
    ],
    "offset": [
      0,
      -2
    ],
    "originalSize": [
      110,
      110
    ],
    "capInsets": [
      0,
      0,
      0,
      0
    ]
  }
}