{
  "__type__": "cc.SpriteFrame",
  "content": {
    "name": "4004041000_00_stand",
    "texture": "dcZVxJd4hJ/4zJV1Q40tEs",
    "rect": [
      11,
      1,
      1139,
      1150
    ],
    "offset": [
      -19.5,
      0
    ],
    "originalSize": [
      1200,
      1152
    ],
    "capInsets": [
      0,
      0,
      0,
      0
    ]
  }
}