{
  "__type__": "cc.SpriteFrame",
  "content": {
    "name": "4004041700_01_face",
    "texture": "d8Q8ho38JBk59EF+b5+2hW",
    "rect": [
      6,
      5,
      100,
      102
    ],
    "offset": [
      1,
      -1
    ],
    "originalSize": [
      110,
      110
    ],
    "capInsets": [
      0,
      0,
      0,
      0
    ]
  }
}