{
  "__type__": "cc.SpriteFrame",
  "content": {
    "name": "3003030300_00_adv",
    "texture": "a1mCk3jSlBYppUR7FKhVi6",
    "rect": [
      29,
      0,
      231,
      260
    ],
    "offset": [
      14.5,
      0
    ],
    "originalSize": [
      260,
      260
    ],
    "capInsets": [
      0,
      0,
      0,
      0
    ]
  }
}