{
  "__type__": "cc.SpriteFrame",
  "content": {
    "name": "3003030300_00_stand",
    "texture": "5bzWXDGhdDObRguTH7urzS",
    "rect": [
      0,
      13,
      1201,
      1186
    ],
    "offset": [
      -3.5,
      -6
    ],
    "originalSize": [
      1208,
      1200
    ],
    "capInsets": [
      0,
      0,
      0,
      0
    ]
  }
}