{
  "__type__": "cc.SpriteFrame",
  "content": {
    "name": "4002022200_00_adv",
    "texture": "74erT3qEhN0oIyxk8Q1X/s",
    "rect": [
      0,
      45,
      260,
      215
    ],
    "offset": [
      0,
      -22.5
    ],
    "originalSize": [
      260,
      260
    ],
    "capInsets": [
      0,
      0,
      0,
      0
    ]
  }
}