{
  "__type__": "cc.SpriteFrame",
  "content": {
    "name": "4003031900_01_adv",
    "texture": "63I2umyqFNlaAt7idv9Ex9",
    "rect": [
      0,
      34,
      260,
      226
    ],
    "offset": [
      0,
      -17
    ],
    "originalSize": [
      260,
      260
    ],
    "capInsets": [
      0,
      0,
      0,
      0
    ]
  }
}