[
  {
    "__type__": "cc.SpriteFrame",
    "content": {
      "name": "BattleTargetMark",
      "texture": "d3PJaEjstJEanfABW47UhG",
      "rect": [
        17,
        8,
        64,
        61
      ],
      "offset": [
        -1,
        1.5
      ],
      "originalSize": [
        100,
        80
      ],
      "capInsets": [
        0,
        0,
        0,
        0
      ]
    }
  },
  [
    {
      "__type__": "cc.Prefab",
      "_name": "BattleTargetMark",
      "data": {
        "__id__": 1
      }
    },
    {
      "__type__": "cc.Node",
      "_name": "BattleTargetMark",
      "_level": 4,
      "_components": [
        {
          "__type__": "cc.Sprite",
          "node": {
            "__id__": 1
          },
          "_spriteFrame": {
            "__uuid__": "2f4sGdIUBLu6cej3kJhCpt"
          }
        }
      ],
      "_prefab": {
        "__type__": "cc.PrefabInfo",
        "root": {
          "__id__": 1
        },
        "asset": {
          "__id__": 0
        },
        "fileId": "034Cvn7i1E3YAKrpXRXltl"
      },
      "_contentSize": {
        "__type__": "cc.Size",
        "width": 64,
        "height": 61
      },
      "_scale": {
        "__type__": "cc.Vec3",
        "x": 1,
        "y": 1,
        "z": 1
      }
    }
  ]
]