{
  "__type__": "cc.SpriteFrame",
  "content": {
    "name": "4004042300_00_stand",
    "texture": "9b4BwDPAZHw7X7ETbOqCQS",
    "rect": [
      169,
      32,
      1074,
      1077
    ],
    "offset": [
      6,
      -12.5
    ],
    "originalSize": [
      1400,
      1116
    ],
    "capInsets": [
      0,
      0,
      0,
      0
    ]
  }
}