{
  "__type__": "cc.SpriteFrame",
  "content": {
    "name": "4004040600_01_stand",
    "texture": "d736y+IVhGSI8gclJ+zd7L",
    "rect": [
      0,
      0,
      1011,
      1043
    ],
    "offset": [
      -0.5,
      0.5
    ],
    "originalSize": [
      1012,
      1044
    ],
    "capInsets": [
      0,
      0,
      0,
      0
    ]
  }
}