{
  "__type__": "sp.SkeletonData",
  "_name": "ef_cha_002_uq_slash_f25",
  "skeletonJsonStr": "{\"skeleton\":{\"hash\":\"mPsZIGxbS26STaAupocNNzvNHkk\",\"spine\":\"3.6.38\",\"width\":30,\"height\":119.81,\"images\":\"./img/\"},\"bones\":[{\"name\":\"root\",\"scaleX\":0.25,\"scaleY\":0.25,\"color\":\"9b9b9bab\"},{\"name\":\"z_ef_all\",\"parent\":\"root\",\"color\":\"9b9b9bab\"},{\"name\":\"move\",\"parent\":\"z_ef_all\",\"color\":\"9b9b9bab\"},{\"name\":\"weapone_slash_all\",\"parent\":\"move\",\"color\":\"9b9b9bab\"},{\"name\":\"line_all\",\"parent\":\"weapone_slash_all\",\"color\":\"9b9b9bab\"},{\"name\":\"rot_we_line_1\",\"parent\":\"line_all\",\"color\":\"9b9b9bab\"},{\"name\":\"rot_we_line_2\",\"parent\":\"line_all\",\"color\":\"9b9b9bab\"},{\"name\":\"rot_we_line_3\",\"parent\":\"line_all\",\"color\":\"9b9b9bab\"},{\"name\":\"rot_we_line_4\",\"parent\":\"line_all\",\"color\":\"9b9b9bab\"},{\"name\":\"rot_we_line_5\",\"parent\":\"line_all\",\"color\":\"9b9b9bab\"},{\"name\":\"slash\",\"parent\":\"weapone_slash_all\",\"color\":\"9b9b9bab\"},{\"name\":\"slash2\",\"parent\":\"weapone_slash_all\",\"color\":\"9b9b9bab\"},{\"name\":\"slash3\",\"parent\":\"weapone_slash_all\",\"color\":\"9b9b9bab\"},{\"name\":\"we_line_01\",\"parent\":\"rot_we_line_1\",\"color\":\"9b9b9bab\"},{\"name\":\"we_line_1\",\"parent\":\"rot_we_line_2\",\"color\":\"9b9b9bab\"},{\"name\":\"we_line_2\",\"parent\":\"rot_we_line_3\",\"color\":\"9b9b9bab\"},{\"name\":\"we_line_3\",\"parent\":\"rot_we_line_4\",\"color\":\"9b9b9bab\"},{\"name\":\"we_line_4\",\"parent\":\"rot_we_line_5\",\"color\":\"9b9b9bab\"}],\"slots\":[{\"name\":\"cha_002_tex-assets/line_b\",\"bone\":\"we_line_01\",\"attachment\":\"cha_002_tex-assets/line_b\",\"blend\":\"additive\"},{\"name\":\"cha_002_tex-assets/line_b5\",\"bone\":\"we_line_4\",\"attachment\":\"cha_002_tex-assets/line_b\",\"blend\":\"additive\"},{\"name\":\"cha_002_tex-assets/line_b4\",\"bone\":\"we_line_3\",\"attachment\":\"cha_002_tex-assets/line_b\",\"blend\":\"additive\"},{\"name\":\"cha_002_tex-assets/line_b2\",\"bone\":\"we_line_1\",\"attachment\":\"cha_002_tex-assets/line_b\",\"blend\":\"additive\"},{\"name\":\"cha_002_tex-assets/line_b3\",\"bone\":\"we_line_2\",\"attachment\":\"cha_002_tex-assets/line_b\",\"blend\":\"additive\"},{\"name\":\"cha_002_tex-assets/weapone_slash2\",\"bone\":\"slash2\",\"attachment\":\"cha_002_tex-assets/weapone_slash\",\"blend\":\"additive\"},{\"name\":\"cha_002_tex-assets/weapone_slash\",\"bone\":\"slash\",\"attachment\":\"cha_002_tex-assets/weapone_slash\",\"blend\":\"additive\"},{\"name\":\"cha_002_tex-assets/weapone_slash3\",\"bone\":\"slash3\",\"attachment\":\"cha_002_tex-assets/weapone_slash\",\"blend\":\"additive\"}],\"skins\":{\"default\":{\"cha_002_tex-assets/line_b\":{\"cha_002_tex-assets/line_b\":{\"x\":2.16,\"y\":107.72,\"width\":32,\"height\":223}},\"cha_002_tex-assets/line_b2\":{\"cha_002_tex-assets/line_b\":{\"x\":2.16,\"y\":107.72,\"width\":32,\"height\":223}},\"cha_002_tex-assets/line_b3\":{\"cha_002_tex-assets/line_b\":{\"x\":2.16,\"y\":107.72,\"width\":32,\"height\":223}},\"cha_002_tex-assets/line_b4\":{\"cha_002_tex-assets/line_b\":{\"x\":2.16,\"y\":107.72,\"width\":32,\"height\":223}},\"cha_002_tex-assets/line_b5\":{\"cha_002_tex-assets/line_b\":{\"x\":2.16,\"y\":107.72,\"width\":32,\"height\":223}},\"cha_002_tex-assets/weapone_slash\":{\"cha_002_tex-assets/weapone_slash\":{\"x\":9.87,\"y\":236.46,\"width\":120,\"height\":478}},\"cha_002_tex-assets/weapone_slash2\":{\"cha_002_tex-assets/weapone_slash\":{\"x\":9.87,\"y\":236.46,\"width\":120,\"height\":478}},\"cha_002_tex-assets/weapone_slash3\":{\"cha_002_tex-assets/weapone_slash\":{\"x\":9.87,\"y\":236.46,\"width\":120,\"height\":478}}}},\"animations\":{\"front\":{\"slots\":{\"cha_002_tex-assets/line_b\":{\"color\":[{\"time\":0,\"color\":\"ffffff00\",\"curve\":\"stepped\"},{\"time\":0.8333,\"color\":\"ffffff00\"},{\"time\":0.8667,\"color\":\"fffffffe\"},{\"time\":1,\"color\":\"ffffff00\"}]},\"cha_002_tex-assets/line_b2\":{\"color\":[{\"time\":0,\"color\":\"ffffff00\",\"curve\":\"stepped\"},{\"time\":0.8333,\"color\":\"ffffff00\"},{\"time\":0.8667,\"color\":\"fffffffe\"},{\"time\":1,\"color\":\"ffffff00\"}]},\"cha_002_tex-assets/line_b3\":{\"color\":[{\"time\":0,\"color\":\"ffffff00\",\"curve\":\"stepped\"},{\"time\":0.8333,\"color\":\"ffffff00\"},{\"time\":0.8667,\"color\":\"fffffffe\"},{\"time\":1,\"color\":\"ffffff00\"}]},\"cha_002_tex-assets/line_b4\":{\"color\":[{\"time\":0,\"color\":\"ffffff00\",\"curve\":\"stepped\"},{\"time\":0.8333,\"color\":\"ffffff00\"},{\"time\":0.8667,\"color\":\"fffffffe\"},{\"time\":1,\"color\":\"ffffff00\"}]},\"cha_002_tex-assets/line_b5\":{\"color\":[{\"time\":0,\"color\":\"ffffff00\",\"curve\":\"stepped\"},{\"time\":0.8333,\"color\":\"ffffff00\"},{\"time\":0.8667,\"color\":\"fffffffe\"},{\"time\":1,\"color\":\"ffffff00\"}]},\"cha_002_tex-assets/weapone_slash\":{\"color\":[{\"time\":0,\"color\":\"ffffff00\",\"curve\":\"stepped\"},{\"time\":0.8333,\"color\":\"ffffff00\"},{\"time\":0.9,\"color\":\"fffffffe\"},{\"time\":1.0667,\"color\":\"ffffff00\"}]},\"cha_002_tex-assets/weapone_slash2\":{\"color\":[{\"time\":0,\"color\":\"ffffff00\",\"curve\":\"stepped\"},{\"time\":0.8333,\"color\":\"ffffff00\"},{\"time\":0.9,\"color\":\"fffffffe\"},{\"time\":1.0667,\"color\":\"ffffff00\"}]},\"cha_002_tex-assets/weapone_slash3\":{\"color\":[{\"time\":0,\"color\":\"ffffff00\",\"curve\":\"stepped\"},{\"time\":0.8333,\"color\":\"ffffff00\"},{\"time\":0.9,\"color\":\"fffffffe\"},{\"time\":1.0667,\"color\":\"ffffff00\"}]}},\"bones\":{\"root\":{\"scale\":[{\"time\":0,\"x\":1,\"y\":1,\"curve\":\"stepped\"},{\"time\":2.4,\"x\":1,\"y\":1}]},\"we_line_01\":{\"translate\":[{\"time\":0.8667,\"x\":0,\"y\":0},{\"time\":0.9667,\"x\":0,\"y\":200}],\"scale\":[{\"time\":0.8667,\"x\":1,\"y\":1},{\"time\":0.9667,\"x\":0.5,\"y\":2}]},\"we_line_1\":{\"translate\":[{\"time\":0.8667,\"x\":0,\"y\":0},{\"time\":0.9667,\"x\":0,\"y\":150}],\"scale\":[{\"time\":0.8667,\"x\":0.5,\"y\":0.5},{\"time\":0.9667,\"x\":0.5,\"y\":1.5}]},\"rot_we_line_2\":{\"rotate\":[{\"time\":0.8333,\"angle\":-11.9}]},\"slash\":{\"scale\":[{\"time\":0.8333,\"x\":1,\"y\":1},{\"time\":0.9,\"x\":1.8,\"y\":2.614},{\"time\":1.0333,\"x\":2,\"y\":2}]},\"we_line_2\":{\"translate\":[{\"time\":0.8667,\"x\":0,\"y\":0},{\"time\":0.9667,\"x\":0,\"y\":250}],\"scale\":[{\"time\":0.8667,\"x\":0.5,\"y\":0.5},{\"time\":0.9667,\"x\":0.5,\"y\":1.2}]},\"rot_we_line_3\":{\"rotate\":[{\"time\":0.8333,\"angle\":14.86}]},\"we_line_3\":{\"translate\":[{\"time\":0.8667,\"x\":0,\"y\":0},{\"time\":0.9667,\"x\":0,\"y\":300}],\"scale\":[{\"time\":0.8667,\"x\":1,\"y\":1},{\"time\":0.9667,\"x\":0.5,\"y\":2}]},\"we_line_4\":{\"translate\":[{\"time\":0.8667,\"x\":0,\"y\":0},{\"time\":0.9667,\"x\":0,\"y\":200}],\"scale\":[{\"time\":0.8667,\"x\":1,\"y\":1},{\"time\":0.9667,\"x\":0.5,\"y\":2}]},\"rot_we_line_4\":{\"rotate\":[{\"time\":0.8333,\"angle\":5.62}]},\"rot_we_line_1\":{\"rotate\":[{\"time\":0.8333,\"angle\":-2.59}]},\"slash2\":{\"rotate\":[{\"time\":0.8333,\"angle\":14.49}],\"scale\":[{\"time\":0.8333,\"x\":0.5,\"y\":0.5},{\"time\":0.9,\"x\":0.5,\"y\":1.2},{\"time\":1.0333,\"x\":0.5,\"y\":1.5}]},\"slash3\":{\"rotate\":[{\"time\":0.8333,\"angle\":-16.56}],\"scale\":[{\"time\":0.8333,\"x\":0.5,\"y\":0.5},{\"time\":0.9,\"x\":0.5,\"y\":1},{\"time\":1.0333,\"x\":0.5,\"y\":1.2}]},\"weapone_slash_all\":{\"rotate\":[{\"time\":0.8667,\"angle\":40.39},{\"time\":0.9,\"angle\":18.61},{\"time\":0.9333,\"angle\":-0.92}],\"translate\":[{\"time\":0,\"x\":510.46,\"y\":332.96,\"curve\":\"stepped\"},{\"time\":0.8667,\"x\":510.46,\"y\":332.96},{\"time\":0.9,\"x\":397.8,\"y\":123.4},{\"time\":0.9333,\"x\":348.95,\"y\":-171.09}]},\"move\":{\"translate\":[{\"time\":0,\"x\":-347.12,\"y\":171.3}]}}}}}",
  "_skeletonJson": {
    "skeleton": {
      "hash": "mPsZIGxbS26STaAupocNNzvNHkk",
      "spine": "3.6.38",
      "width": 30,
      "height": 119.81,
      "images": "./img/"
    },
    "bones": [
      {
        "name": "root",
        "scaleX": 0.25,
        "scaleY": 0.25,
        "color": "9b9b9bab"
      },
      {
        "name": "z_ef_all",
        "parent": "root",
        "color": "9b9b9bab"
      },
      {
        "name": "move",
        "parent": "z_ef_all",
        "color": "9b9b9bab"
      },
      {
        "name": "weapone_slash_all",
        "parent": "move",
        "color": "9b9b9bab"
      },
      {
        "name": "line_all",
        "parent": "weapone_slash_all",
        "color": "9b9b9bab"
      },
      {
        "name": "rot_we_line_1",
        "parent": "line_all",
        "color": "9b9b9bab"
      },
      {
        "name": "rot_we_line_2",
        "parent": "line_all",
        "color": "9b9b9bab"
      },
      {
        "name": "rot_we_line_3",
        "parent": "line_all",
        "color": "9b9b9bab"
      },
      {
        "name": "rot_we_line_4",
        "parent": "line_all",
        "color": "9b9b9bab"
      },
      {
        "name": "rot_we_line_5",
        "parent": "line_all",
        "color": "9b9b9bab"
      },
      {
        "name": "slash",
        "parent": "weapone_slash_all",
        "color": "9b9b9bab"
      },
      {
        "name": "slash2",
        "parent": "weapone_slash_all",
        "color": "9b9b9bab"
      },
      {
        "name": "slash3",
        "parent": "weapone_slash_all",
        "color": "9b9b9bab"
      },
      {
        "name": "we_line_01",
        "parent": "rot_we_line_1",
        "color": "9b9b9bab"
      },
      {
        "name": "we_line_1",
        "parent": "rot_we_line_2",
        "color": "9b9b9bab"
      },
      {
        "name": "we_line_2",
        "parent": "rot_we_line_3",
        "color": "9b9b9bab"
      },
      {
        "name": "we_line_3",
        "parent": "rot_we_line_4",
        "color": "9b9b9bab"
      },
      {
        "name": "we_line_4",
        "parent": "rot_we_line_5",
        "color": "9b9b9bab"
      }
    ],
    "slots": [
      {
        "name": "cha_002_tex-assets/line_b",
        "bone": "we_line_01",
        "attachment": "cha_002_tex-assets/line_b",
        "blend": "additive"
      },
      {
        "name": "cha_002_tex-assets/line_b5",
        "bone": "we_line_4",
        "attachment": "cha_002_tex-assets/line_b",
        "blend": "additive"
      },
      {
        "name": "cha_002_tex-assets/line_b4",
        "bone": "we_line_3",
        "attachment": "cha_002_tex-assets/line_b",
        "blend": "additive"
      },
      {
        "name": "cha_002_tex-assets/line_b2",
        "bone": "we_line_1",
        "attachment": "cha_002_tex-assets/line_b",
        "blend": "additive"
      },
      {
        "name": "cha_002_tex-assets/line_b3",
        "bone": "we_line_2",
        "attachment": "cha_002_tex-assets/line_b",
        "blend": "additive"
      },
      {
        "name": "cha_002_tex-assets/weapone_slash2",
        "bone": "slash2",
        "attachment": "cha_002_tex-assets/weapone_slash",
        "blend": "additive"
      },
      {
        "name": "cha_002_tex-assets/weapone_slash",
        "bone": "slash",
        "attachment": "cha_002_tex-assets/weapone_slash",
        "blend": "additive"
      },
      {
        "name": "cha_002_tex-assets/weapone_slash3",
        "bone": "slash3",
        "attachment": "cha_002_tex-assets/weapone_slash",
        "blend": "additive"
      }
    ],
    "skins": {
      "default": {
        "cha_002_tex-assets/line_b": {
          "cha_002_tex-assets/line_b": {
            "x": 2.16,
            "y": 107.72,
            "width": 32,
            "height": 223
          }
        },
        "cha_002_tex-assets/line_b2": {
          "cha_002_tex-assets/line_b": {
            "x": 2.16,
            "y": 107.72,
            "width": 32,
            "height": 223
          }
        },
        "cha_002_tex-assets/line_b3": {
          "cha_002_tex-assets/line_b": {
            "x": 2.16,
            "y": 107.72,
            "width": 32,
            "height": 223
          }
        },
        "cha_002_tex-assets/line_b4": {
          "cha_002_tex-assets/line_b": {
            "x": 2.16,
            "y": 107.72,
            "width": 32,
            "height": 223
          }
        },
        "cha_002_tex-assets/line_b5": {
          "cha_002_tex-assets/line_b": {
            "x": 2.16,
            "y": 107.72,
            "width": 32,
            "height": 223
          }
        },
        "cha_002_tex-assets/weapone_slash": {
          "cha_002_tex-assets/weapone_slash": {
            "x": 9.87,
            "y": 236.46,
            "width": 120,
            "height": 478
          }
        },
        "cha_002_tex-assets/weapone_slash2": {
          "cha_002_tex-assets/weapone_slash": {
            "x": 9.87,
            "y": 236.46,
            "width": 120,
            "height": 478
          }
        },
        "cha_002_tex-assets/weapone_slash3": {
          "cha_002_tex-assets/weapone_slash": {
            "x": 9.87,
            "y": 236.46,
            "width": 120,
            "height": 478
          }
        }
      }
    },
    "animations": {
      "front": {
        "slots": {
          "cha_002_tex-assets/line_b": {
            "color": [
              {
                "time": 0,
                "color": "ffffff00",
                "curve": "stepped"
              },
              {
                "time": 0.8333,
                "color": "ffffff00"
              },
              {
                "time": 0.8667,
                "color": "fffffffe"
              },
              {
                "time": 1,
                "color": "ffffff00"
              }
            ]
          },
          "cha_002_tex-assets/line_b2": {
            "color": [
              {
                "time": 0,
                "color": "ffffff00",
                "curve": "stepped"
              },
              {
                "time": 0.8333,
                "color": "ffffff00"
              },
              {
                "time": 0.8667,
                "color": "fffffffe"
              },
              {
                "time": 1,
                "color": "ffffff00"
              }
            ]
          },
          "cha_002_tex-assets/line_b3": {
            "color": [
              {
                "time": 0,
                "color": "ffffff00",
                "curve": "stepped"
              },
              {
                "time": 0.8333,
                "color": "ffffff00"
              },
              {
                "time": 0.8667,
                "color": "fffffffe"
              },
              {
                "time": 1,
                "color": "ffffff00"
              }
            ]
          },
          "cha_002_tex-assets/line_b4": {
            "color": [
              {
                "time": 0,
                "color": "ffffff00",
                "curve": "stepped"
              },
              {
                "time": 0.8333,
                "color": "ffffff00"
              },
              {
                "time": 0.8667,
                "color": "fffffffe"
              },
              {
                "time": 1,
                "color": "ffffff00"
              }
            ]
          },
          "cha_002_tex-assets/line_b5": {
            "color": [
              {
                "time": 0,
                "color": "ffffff00",
                "curve": "stepped"
              },
              {
                "time": 0.8333,
                "color": "ffffff00"
              },
              {
                "time": 0.8667,
                "color": "fffffffe"
              },
              {
                "time": 1,
                "color": "ffffff00"
              }
            ]
          },
          "cha_002_tex-assets/weapone_slash": {
            "color": [
              {
                "time": 0,
                "color": "ffffff00",
                "curve": "stepped"
              },
              {
                "time": 0.8333,
                "color": "ffffff00"
              },
              {
                "time": 0.9,
                "color": "fffffffe"
              },
              {
                "time": 1.0667,
                "color": "ffffff00"
              }
            ]
          },
          "cha_002_tex-assets/weapone_slash2": {
            "color": [
              {
                "time": 0,
                "color": "ffffff00",
                "curve": "stepped"
              },
              {
                "time": 0.8333,
                "color": "ffffff00"
              },
              {
                "time": 0.9,
                "color": "fffffffe"
              },
              {
                "time": 1.0667,
                "color": "ffffff00"
              }
            ]
          },
          "cha_002_tex-assets/weapone_slash3": {
            "color": [
              {
                "time": 0,
                "color": "ffffff00",
                "curve": "stepped"
              },
              {
                "time": 0.8333,
                "color": "ffffff00"
              },
              {
                "time": 0.9,
                "color": "fffffffe"
              },
              {
                "time": 1.0667,
                "color": "ffffff00"
              }
            ]
          }
        },
        "bones": {
          "root": {
            "scale": [
              {
                "time": 0,
                "x": 1,
                "y": 1,
                "curve": "stepped"
              },
              {
                "time": 2.4,
                "x": 1,
                "y": 1
              }
            ]
          },
          "we_line_01": {
            "translate": [
              {
                "time": 0.8667,
                "x": 0,
                "y": 0
              },
              {
                "time": 0.9667,
                "x": 0,
                "y": 200
              }
            ],
            "scale": [
              {
                "time": 0.8667,
                "x": 1,
                "y": 1
              },
              {
                "time": 0.9667,
                "x": 0.5,
                "y": 2
              }
            ]
          },
          "we_line_1": {
            "translate": [
              {
                "time": 0.8667,
                "x": 0,
                "y": 0
              },
              {
                "time": 0.9667,
                "x": 0,
                "y": 150
              }
            ],
            "scale": [
              {
                "time": 0.8667,
                "x": 0.5,
                "y": 0.5
              },
              {
                "time": 0.9667,
                "x": 0.5,
                "y": 1.5
              }
            ]
          },
          "rot_we_line_2": {
            "rotate": [
              {
                "time": 0.8333,
                "angle": -11.9
              }
            ]
          },
          "slash": {
            "scale": [
              {
                "time": 0.8333,
                "x": 1,
                "y": 1
              },
              {
                "time": 0.9,
                "x": 1.8,
                "y": 2.614
              },
              {
                "time": 1.0333,
                "x": 2,
                "y": 2
              }
            ]
          },
          "we_line_2": {
            "translate": [
              {
                "time": 0.8667,
                "x": 0,
                "y": 0
              },
              {
                "time": 0.9667,
                "x": 0,
                "y": 250
              }
            ],
            "scale": [
              {
                "time": 0.8667,
                "x": 0.5,
                "y": 0.5
              },
              {
                "time": 0.9667,
                "x": 0.5,
                "y": 1.2
              }
            ]
          },
          "rot_we_line_3": {
            "rotate": [
              {
                "time": 0.8333,
                "angle": 14.86
              }
            ]
          },
          "we_line_3": {
            "translate": [
              {
                "time": 0.8667,
                "x": 0,
                "y": 0
              },
              {
                "time": 0.9667,
                "x": 0,
                "y": 300
              }
            ],
            "scale": [
              {
                "time": 0.8667,
                "x": 1,
                "y": 1
              },
              {
                "time": 0.9667,
                "x": 0.5,
                "y": 2
              }
            ]
          },
          "we_line_4": {
            "translate": [
              {
                "time": 0.8667,
                "x": 0,
                "y": 0
              },
              {
                "time": 0.9667,
                "x": 0,
                "y": 200
              }
            ],
            "scale": [
              {
                "time": 0.8667,
                "x": 1,
                "y": 1
              },
              {
                "time": 0.9667,
                "x": 0.5,
                "y": 2
              }
            ]
          },
          "rot_we_line_4": {
            "rotate": [
              {
                "time": 0.8333,
                "angle": 5.62
              }
            ]
          },
          "rot_we_line_1": {
            "rotate": [
              {
                "time": 0.8333,
                "angle": -2.59
              }
            ]
          },
          "slash2": {
            "rotate": [
              {
                "time": 0.8333,
                "angle": 14.49
              }
            ],
            "scale": [
              {
                "time": 0.8333,
                "x": 0.5,
                "y": 0.5
              },
              {
                "time": 0.9,
                "x": 0.5,
                "y": 1.2
              },
              {
                "time": 1.0333,
                "x": 0.5,
                "y": 1.5
              }
            ]
          },
          "slash3": {
            "rotate": [
              {
                "time": 0.8333,
                "angle": -16.56
              }
            ],
            "scale": [
              {
                "time": 0.8333,
                "x": 0.5,
                "y": 0.5
              },
              {
                "time": 0.9,
                "x": 0.5,
                "y": 1
              },
              {
                "time": 1.0333,
                "x": 0.5,
                "y": 1.2
              }
            ]
          },
          "weapone_slash_all": {
            "rotate": [
              {
                "time": 0.8667,
                "angle": 40.39
              },
              {
                "time": 0.9,
                "angle": 18.61
              },
              {
                "time": 0.9333,
                "angle": -0.92
              }
            ],
            "translate": [
              {
                "time": 0,
                "x": 510.46,
                "y": 332.96,
                "curve": "stepped"
              },
              {
                "time": 0.8667,
                "x": 510.46,
                "y": 332.96
              },
              {
                "time": 0.9,
                "x": 397.8,
                "y": 123.4
              },
              {
                "time": 0.9333,
                "x": 348.95,
                "y": -171.09
              }
            ]
          },
          "move": {
            "translate": [
              {
                "time": 0,
                "x": -347.12,
                "y": 171.3
              }
            ]
          }
        }
      }
    }
  },
  "_atlasText": "\nef_cha_002_uq_slash_f25.png\nsize: 512,256\nformat: RGBA8888\nfilter: Linear,Linear\nrepeat: none\ncha_002_tex-assets/line_b\n  rotate: true\n  xy: 2, 2\n  size: 32, 223\n  orig: 32, 223\n  offset: 0, 0\n  index: -1\ncha_002_tex-assets/weapone_slash\n  rotate: true\n  xy: 2, 36\n  size: 120, 478\n  orig: 120, 478\n  offset: 0, 0\n  index: -1\n",
  "textures": [
    {
      "__uuid__": "6cdXXDLwxKrrCfaYVPdL6S"
    }
  ],
  "textureNames": [
    "ef_cha_002_uq_slash_f25.png"
  ]
}