{
  "__type__": "cc.SpriteFrame",
  "content": {
    "name": "3001011200_00_face",
    "texture": "32DiCHgw1OjIhsSok05Zc9",
    "rect": [
      3,
      5,
      103,
      102
    ],
    "offset": [
      -0.5,
      -1
    ],
    "originalSize": [
      110,
      110
    ],
    "capInsets": [
      0,
      0,
      0,
      0
    ]
  }
}