{
  "__type__": "cc.SpriteFrame",
  "content": {
    "name": "4005051800_00_face",
    "texture": "29UbyfWvJEZL0WUYRl3ETH",
    "rect": [
      3,
      5,
      103,
      102
    ],
    "offset": [
      -0.5,
      -1
    ],
    "originalSize": [
      110,
      110
    ],
    "capInsets": [
      0,
      0,
      0,
      0
    ]
  }
}