{
  "__type__": "cc.SpriteFrame",
  "content": {
    "name": "2006060800_00_adv",
    "texture": "8csbHhbJZFbr9E1KbSpcta",
    "rect": [
      0,
      43,
      260,
      217
    ],
    "offset": [
      0,
      -21.5
    ],
    "originalSize": [
      260,
      260
    ],
    "capInsets": [
      0,
      0,
      0,
      0
    ]
  }
}