{
  "__type__": "cc.SpriteFrame",
  "content": {
    "name": "5004042500_00_adv",
    "texture": "09N/mNi5JAkI96cnJwbWQ3",
    "rect": [
      0,
      50,
      250,
      210
    ],
    "offset": [
      -5,
      -25
    ],
    "originalSize": [
      260,
      260
    ],
    "capInsets": [
      0,
      0,
      0,
      0
    ]
  }
}