{
  "__type__": "cc.SpriteFrame",
  "content": {
    "name": "4002020300_00_adv",
    "texture": "52QzIibXlJsptk2EeNWmEu",
    "rect": [
      0,
      28,
      238,
      232
    ],
    "offset": [
      -11,
      -14
    ],
    "originalSize": [
      260,
      260
    ],
    "capInsets": [
      0,
      0,
      0,
      0
    ]
  }
}