{
  "__type__": "cc.SpriteFrame",
  "content": {
    "name": "2004040200_01_stand",
    "texture": "dcK0jq4R9CoL9q6VgYtmj2",
    "rect": [
      0,
      2,
      1094,
      1158
    ],
    "offset": [
      -1,
      -1
    ],
    "originalSize": [
      1096,
      1160
    ],
    "capInsets": [
      0,
      0,
      0,
      0
    ]
  }
}