{
  "__type__": "cc.SpriteFrame",
  "content": {
    "name": "5004041300_00_stand",
    "texture": "d4ACjgXbhA3Kkbixv+Ocnt",
    "rect": [
      0,
      0,
      1468,
      1499
    ],
    "offset": [
      -4,
      0.5
    ],
    "originalSize": [
      1476,
      1500
    ],
    "capInsets": [
      0,
      0,
      0,
      0
    ]
  }
}