{
  "__type__": "cc.SpriteFrame",
  "content": {
    "name": "4004042400_00_adv",
    "texture": "a9C1xTQ8RC84/I8n3yy2CV",
    "rect": [
      0,
      29,
      260,
      231
    ],
    "offset": [
      0,
      -14.5
    ],
    "originalSize": [
      260,
      260
    ],
    "capInsets": [
      0,
      0,
      0,
      0
    ]
  }
}