{
  "__type__": "cc.SpriteFrame",
  "content": {
    "name": "2001010500_00_stand",
    "texture": "1ai4erADVA26gt2P6qonbo",
    "rect": [
      1,
      43,
      1002,
      1008
    ],
    "offset": [
      0,
      -21
    ],
    "originalSize": [
      1004,
      1052
    ],
    "capInsets": [
      0,
      0,
      0,
      0
    ]
  }
}