{
  "__type__": "cc.SpriteFrame",
  "content": {
    "name": "4006080100_00_face",
    "texture": "6dFNVe4wNAm5lOSJmThJuS",
    "rect": [
      5,
      5,
      101,
      102
    ],
    "offset": [
      0.5,
      -1
    ],
    "originalSize": [
      110,
      110
    ],
    "capInsets": [
      0,
      0,
      0,
      0
    ]
  }
}