{
  "__type__": "cc.SpriteFrame",
  "content": {
    "name": "2002099500_00_face",
    "texture": "52mlKO8cZGGIGo+QPAVtY6",
    "rect": [
      13,
      13,
      91,
      94
    ],
    "offset": [
      3.5,
      -5
    ],
    "originalSize": [
      110,
      110
    ],
    "capInsets": [
      0,
      0,
      0,
      0
    ]
  }
}