[
  {
    "__type__": "cc.SpriteFrame",
    "content": {
      "name": "DialogTitle",
      "texture": "cac+i8Qc5B3K7EOwElukg6",
      "rect": [
        0,
        0,
        414,
        51
      ],
      "offset": [
        0,
        0
      ],
      "originalSize": [
        414,
        51
      ],
      "capInsets": [
        0,
        0,
        0,
        0
      ]
    }
  },
  {
    "__type__": "cc.SpriteFrame",
    "content": {
      "name": "Button02On",
      "texture": "91JjRk/tVElo03YEwK08Zc",
      "rect": [
        0,
        0,
        262,
        74
      ],
      "offset": [
        0,
        0
      ],
      "originalSize": [
        262,
        74
      ],
      "capInsets": [
        0,
        0,
        0,
        0
      ]
    }
  },
  {
    "__type__": "cc.SpriteFrame",
    "content": {
      "name": "DialogFrame",
      "texture": "c7KugkAWNFdr56q7ymF3Et",
      "rect": [
        0,
        0,
        197,
        303
      ],
      "offset": [
        0,
        0
      ],
      "originalSize": [
        197,
        303
      ],
      "capInsets": [
        94,
        96,
        95,
        67
      ]
    }
  },
  {
    "__type__": "cc.SpriteFrame",
    "content": {
      "name": "Button01Disabled",
      "texture": "a7zUKTZJBKX7QZWoVOiNhN",
      "rect": [
        0,
        0,
        262,
        74
      ],
      "offset": [
        0,
        0
      ],
      "originalSize": [
        262,
        74
      ],
      "capInsets": [
        0,
        0,
        0,
        0
      ]
    }
  },
  {
    "__type__": "cc.SpriteFrame",
    "content": {
      "name": "Button01Off",
      "texture": "082+iHT+5P94Zg5jbdodJM",
      "rect": [
        0,
        0,
        262,
        74
      ],
      "offset": [
        0,
        0
      ],
      "originalSize": [
        262,
        74
      ],
      "capInsets": [
        0,
        0,
        0,
        0
      ]
    }
  },
  {
    "__type__": "cc.SpriteFrame",
    "content": {
      "name": "default_sprite_splash",
      "texture": "02delMVqdBD70a/HSD99FK",
      "rect": [
        0,
        0,
        2,
        2
      ],
      "offset": [
        0,
        0
      ],
      "originalSize": [
        2,
        2
      ],
      "capInsets": [
        0,
        0,
        0,
        0
      ]
    }
  },
  {
    "__type__": "cc.SpriteFrame",
    "content": {
      "name": "DialogBackground",
      "texture": "1abJNC7aFDRZsF55DHGh4V",
      "rect": [
        0,
        0,
        1280,
        720
      ],
      "offset": [
        0,
        0
      ],
      "originalSize": [
        1280,
        720
      ],
      "capInsets": [
        0,
        0,
        0,
        0
      ]
    }
  },
  {
    "__type__": "cc.SpriteFrame",
    "content": {
      "name": "Button01On",
      "texture": "73s5bHEhVHf6Jwye7cuADb",
      "rect": [
        0,
        0,
        262,
        74
      ],
      "offset": [
        0,
        0
      ],
      "originalSize": [
        262,
        74
      ],
      "capInsets": [
        0,
        0,
        0,
        0
      ]
    }
  },
  {
    "__type__": "cc.SpriteFrame",
    "content": {
      "name": "Buffon02Off",
      "texture": "a6MsVHKu1C47gkSz5TgEdu",
      "rect": [
        0,
        0,
        262,
        74
      ],
      "offset": [
        0,
        0
      ],
      "originalSize": [
        262,
        74
      ],
      "capInsets": [
        0,
        0,
        0,
        0
      ]
    }
  },
  [
    {
      "__type__": "cc.Prefab",
      "_name": "MessageDialogLayer",
      "data": {
        "__id__": 1
      }
    },
    {
      "__type__": "cc.Node",
      "_name": "MessageDialogLayer",
      "_children": [
        {
          "__id__": 2
        },
        {
          "__id__": 3
        },
        {
          "__id__": 4
        },
        {
          "__id__": 6
        },
        {
          "__id__": 10
        },
        {
          "__id__": 14
        },
        {
          "__id__": 18
        },
        {
          "__id__": 19
        }
      ],
      "_level": 1,
      "_components": [
        {
          "__type__": "db366DQiWtKF488sRMJOE/Q",
          "node": {
            "__id__": 1
          },
          "title": {
            "__id__": 21
          },
          "message": {
            "__id__": 5
          },
          "closeButton": {
            "__id__": 9
          },
          "okButton": {
            "__id__": 13
          },
          "cancelButton": {
            "__id__": 17
          }
        },
        {
          "__type__": "cc.Widget",
          "node": {
            "__id__": 1
          },
          "_alignFlags": 45
        }
      ],
      "_prefab": {
        "__type__": "cc.PrefabInfo",
        "root": {
          "__id__": 1
        },
        "asset": {
          "__uuid__": "e3RLVqYxhID442gWjC3ugy"
        },
        "fileId": "1a3WvY4DlEF41IGzb5dM6D"
      },
      "_contentSize": {
        "__type__": "cc.Size",
        "width": 1280,
        "height": 720
      },
      "_position": {
        "__type__": "cc.Vec3",
        "x": 640,
        "y": 360
      },
      "_scale": {
        "__type__": "cc.Vec3",
        "x": 1,
        "y": 1,
        "z": 1
      }
    },
    {
      "__type__": "cc.Node",
      "_name": "Blocker",
      "_parent": {
        "__id__": 1
      },
      "_level": 2,
      "_components": [
        {
          "__type__": "cc.Sprite",
          "node": {
            "__id__": 2
          },
          "_spriteFrame": {
            "__uuid__": "a2MjXRFdtLlYQ5ouAFv/+R"
          },
          "_sizeMode": 0
        },
        {
          "__type__": "cc.Widget",
          "node": {
            "__id__": 2
          },
          "_alignFlags": 45,
          "_originalWidth": 1000,
          "_originalHeight": 800
        }
      ],
      "_prefab": {
        "__type__": "cc.PrefabInfo",
        "root": {
          "__id__": 1
        },
        "asset": {
          "__uuid__": "e3RLVqYxhID442gWjC3ugy"
        },
        "fileId": "cefoU5l3lKspAMFIbA8Pwl"
      },
      "_opacity": 128,
      "_color": {
        "__type__": "cc.Color"
      },
      "_contentSize": {
        "__type__": "cc.Size",
        "width": 1280,
        "height": 720
      },
      "_scale": {
        "__type__": "cc.Vec3",
        "x": 1,
        "y": 1,
        "z": 1
      }
    },
    {
      "__type__": "cc.Node",
      "_name": "DialogBackground",
      "_parent": {
        "__id__": 1
      },
      "_level": 3,
      "_components": [
        {
          "__type__": "cc.Sprite",
          "node": {
            "__id__": 3
          },
          "_spriteFrame": {
            "__uuid__": "acRamXZbpMp5v2RXtXSN6K"
          },
          "_sizeMode": 0
        }
      ],
      "_prefab": {
        "__type__": "cc.PrefabInfo",
        "root": {
          "__id__": 1
        },
        "asset": {
          "__uuid__": "e3RLVqYxhID442gWjC3ugy"
        },
        "fileId": "19IHJl0oNNVIwhROdWb74f"
      },
      "_contentSize": {
        "__type__": "cc.Size",
        "width": 570,
        "height": 372
      },
      "_position": {
        "__type__": "cc.Vec3",
        "x": 1,
        "y": -2
      },
      "_scale": {
        "__type__": "cc.Vec3",
        "x": 1,
        "y": 1,
        "z": 1
      }
    },
    {
      "__type__": "cc.Node",
      "_name": "MessageLabel",
      "_parent": {
        "__id__": 1
      },
      "_level": 3,
      "_components": [
        {
          "__id__": 5
        },
        {
          "__type__": "cc.LabelOutline",
          "node": {
            "__id__": 4
          }
        }
      ],
      "_prefab": {
        "__type__": "cc.PrefabInfo",
        "root": {
          "__id__": 1
        },
        "asset": {
          "__uuid__": "e3RLVqYxhID442gWjC3ugy"
        },
        "fileId": "fbsxO4jC9Pr4W6G5G99jiT"
      },
      "_color": {
        "__type__": "cc.Color",
        "r": 41,
        "g": 14,
        "b": 4
      },
      "_contentSize": {
        "__type__": "cc.Size",
        "width": 480,
        "height": 220
      },
      "_position": {
        "__type__": "cc.Vec3",
        "x": 5,
        "y": 28
      },
      "_scale": {
        "__type__": "cc.Vec3",
        "x": 1,
        "y": 1,
        "z": 1
      }
    },
    {
      "__type__": "cc.Label",
      "node": {
        "__id__": 4
      },
      "_useOriginalSize": false,
      "_string": "Are you really sure?",
      "_N$string": "Are you really sure?",
      "_fontSize": 25,
      "_lineHeight": 45,
      "_N$horizontalAlign": 1,
      "_N$verticalAlign": 1,
      "_N$overflow": 1
    },
    {
      "__type__": "cc.Node",
      "_name": "CloseButton",
      "_parent": {
        "__id__": 1
      },
      "_children": [
        {
          "__id__": 7
        }
      ],
      "_active": false,
      "_level": 2,
      "_components": [
        {
          "__id__": 9
        }
      ],
      "_prefab": {
        "__type__": "cc.PrefabInfo",
        "root": {
          "__id__": 1
        },
        "asset": {
          "__uuid__": "e3RLVqYxhID442gWjC3ugy"
        },
        "fileId": "d5bF/eoapASpcge4xLGVfH"
      },
      "_contentSize": {
        "__type__": "cc.Size",
        "width": 131,
        "height": 37
      },
      "_position": {
        "__type__": "cc.Vec3",
        "y": -130
      },
      "_scale": {
        "__type__": "cc.Vec3",
        "x": 1,
        "y": 1,
        "z": 1
      }
    },
    {
      "__type__": "cc.Node",
      "_name": "Background",
      "_parent": {
        "__id__": 6
      },
      "_children": [
        {
          "__id__": 8
        }
      ],
      "_level": 2,
      "_components": [
        {
          "__type__": "cc.Sprite",
          "node": {
            "__id__": 7
          },
          "_spriteFrame": {
            "__uuid__": "cd2zmBkIdHjI2WMnkaxCHl"
          },
          "_type": 1,
          "_sizeMode": 0
        },
        {
          "__type__": "cc.Widget",
          "node": {
            "__id__": 7
          },
          "alignMode": 0,
          "_alignFlags": 45,
          "_originalWidth": 100,
          "_originalHeight": 40
        }
      ],
      "_prefab": {
        "__type__": "cc.PrefabInfo",
        "root": {
          "__id__": 1
        },
        "asset": {
          "__uuid__": "e3RLVqYxhID442gWjC3ugy"
        },
        "fileId": "d7ASvp7cBMOae+g5mCp4S3"
      },
      "_color": {
        "__type__": "cc.Color",
        "r": 230,
        "g": 230,
        "b": 230
      },
      "_contentSize": {
        "__type__": "cc.Size",
        "width": 131,
        "height": 37
      },
      "_scale": {
        "__type__": "cc.Vec3",
        "x": 1,
        "y": 1,
        "z": 1
      }
    },
    {
      "__type__": "cc.Node",
      "_name": "Label",
      "_parent": {
        "__id__": 7
      },
      "_level": 3,
      "_components": [
        {
          "__type__": "cc.Label",
          "node": {
            "__id__": 8
          },
          "_useOriginalSize": false,
          "_string": "CLOSE",
          "_N$string": "CLOSE",
          "_fontSize": 20,
          "_enableWrapText": false,
          "_N$horizontalAlign": 1,
          "_N$verticalAlign": 1,
          "_N$overflow": 1
        },
        {
          "__type__": "cc.LabelOutline",
          "node": {
            "__id__": 8
          },
          "_color": {
            "__type__": "cc.Color"
          }
        }
      ],
      "_prefab": {
        "__type__": "cc.PrefabInfo",
        "root": {
          "__id__": 1
        },
        "asset": {
          "__uuid__": "e3RLVqYxhID442gWjC3ugy"
        },
        "fileId": "52nKsqIzdB6Jz0uOz9rDqJ"
      },
      "_contentSize": {
        "__type__": "cc.Size",
        "width": 100,
        "height": 40
      },
      "_scale": {
        "__type__": "cc.Vec3",
        "x": 1,
        "y": 1,
        "z": 1
      }
    },
    {
      "__type__": "cc.Button",
      "node": {
        "__id__": 6
      },
      "_N$transition": 2,
      "transition": 2,
      "_N$normalColor": {
        "__type__": "cc.Color",
        "r": 230,
        "g": 230,
        "b": 230
      },
      "_N$pressedColor": {
        "__type__": "cc.Color",
        "r": 200,
        "g": 200,
        "b": 200
      },
      "pressedColor": {
        "__type__": "cc.Color",
        "r": 200,
        "g": 200,
        "b": 200
      },
      "_N$disabledColor": {
        "__type__": "cc.Color",
        "r": 120,
        "g": 120,
        "b": 120,
        "a": 200
      },
      "_N$normalSprite": {
        "__uuid__": "cd2zmBkIdHjI2WMnkaxCHl"
      },
      "_N$pressedSprite": {
        "__uuid__": "221Jpf9JNLG4B0sr4aWxlN"
      },
      "pressedSprite": {
        "__uuid__": "221Jpf9JNLG4B0sr4aWxlN"
      },
      "_N$hoverSprite": {
        "__uuid__": "221Jpf9JNLG4B0sr4aWxlN"
      },
      "hoverSprite": {
        "__uuid__": "221Jpf9JNLG4B0sr4aWxlN"
      },
      "_N$disabledSprite": {
        "__uuid__": "7e95UXhv5HsoPEKDs4PKRF"
      },
      "_N$target": {
        "__id__": 7
      }
    },
    {
      "__type__": "cc.Node",
      "_name": "OkButton",
      "_parent": {
        "__id__": 1
      },
      "_children": [
        {
          "__id__": 11
        }
      ],
      "_level": 3,
      "_components": [
        {
          "__id__": 13
        }
      ],
      "_prefab": {
        "__type__": "cc.PrefabInfo",
        "root": {
          "__id__": 1
        },
        "asset": {
          "__uuid__": "e3RLVqYxhID442gWjC3ugy"
        },
        "fileId": "6e67QqmwhO+ocfNDLQbGXb"
      },
      "_contentSize": {
        "__type__": "cc.Size",
        "width": 131,
        "height": 37
      },
      "_position": {
        "__type__": "cc.Vec3",
        "x": 80,
        "y": -130
      },
      "_scale": {
        "__type__": "cc.Vec3",
        "x": 1,
        "y": 1,
        "z": 1
      }
    },
    {
      "__type__": "cc.Node",
      "_name": "Background",
      "_parent": {
        "__id__": 10
      },
      "_children": [
        {
          "__id__": 12
        }
      ],
      "_level": 2,
      "_components": [
        {
          "__type__": "cc.Sprite",
          "node": {
            "__id__": 11
          },
          "_spriteFrame": {
            "__uuid__": "cd2zmBkIdHjI2WMnkaxCHl"
          },
          "_type": 1,
          "_sizeMode": 0
        },
        {
          "__type__": "cc.Widget",
          "node": {
            "__id__": 11
          },
          "alignMode": 0,
          "_alignFlags": 45,
          "_originalWidth": 100,
          "_originalHeight": 40
        }
      ],
      "_prefab": {
        "__type__": "cc.PrefabInfo",
        "root": {
          "__id__": 1
        },
        "asset": {
          "__uuid__": "e3RLVqYxhID442gWjC3ugy"
        },
        "fileId": "c5huDYzfhMtrrtKlRdCM4O"
      },
      "_color": {
        "__type__": "cc.Color",
        "r": 230,
        "g": 230,
        "b": 230
      },
      "_contentSize": {
        "__type__": "cc.Size",
        "width": 131,
        "height": 37
      },
      "_scale": {
        "__type__": "cc.Vec3",
        "x": 1,
        "y": 1,
        "z": 1
      }
    },
    {
      "__type__": "cc.Node",
      "_name": "Label",
      "_parent": {
        "__id__": 11
      },
      "_level": 3,
      "_components": [
        {
          "__type__": "cc.Label",
          "node": {
            "__id__": 12
          },
          "_useOriginalSize": false,
          "_string": "OK",
          "_N$string": "OK",
          "_fontSize": 20,
          "_enableWrapText": false,
          "_N$horizontalAlign": 1,
          "_N$verticalAlign": 1,
          "_N$overflow": 1
        },
        {
          "__type__": "cc.LabelOutline",
          "node": {
            "__id__": 12
          },
          "_color": {
            "__type__": "cc.Color"
          }
        }
      ],
      "_prefab": {
        "__type__": "cc.PrefabInfo",
        "root": {
          "__id__": 1
        },
        "asset": {
          "__uuid__": "e3RLVqYxhID442gWjC3ugy"
        },
        "fileId": "3d5LbLjTtAfIxrEXQiTj0b"
      },
      "_contentSize": {
        "__type__": "cc.Size",
        "width": 100,
        "height": 40
      },
      "_scale": {
        "__type__": "cc.Vec3",
        "x": 1,
        "y": 1,
        "z": 1
      }
    },
    {
      "__type__": "cc.Button",
      "node": {
        "__id__": 10
      },
      "_N$transition": 2,
      "transition": 2,
      "_N$normalColor": {
        "__type__": "cc.Color",
        "r": 230,
        "g": 230,
        "b": 230
      },
      "_N$pressedColor": {
        "__type__": "cc.Color",
        "r": 200,
        "g": 200,
        "b": 200
      },
      "pressedColor": {
        "__type__": "cc.Color",
        "r": 200,
        "g": 200,
        "b": 200
      },
      "_N$disabledColor": {
        "__type__": "cc.Color",
        "r": 120,
        "g": 120,
        "b": 120,
        "a": 200
      },
      "_N$normalSprite": {
        "__uuid__": "cd2zmBkIdHjI2WMnkaxCHl"
      },
      "_N$pressedSprite": {
        "__uuid__": "221Jpf9JNLG4B0sr4aWxlN"
      },
      "pressedSprite": {
        "__uuid__": "221Jpf9JNLG4B0sr4aWxlN"
      },
      "_N$hoverSprite": {
        "__uuid__": "221Jpf9JNLG4B0sr4aWxlN"
      },
      "hoverSprite": {
        "__uuid__": "221Jpf9JNLG4B0sr4aWxlN"
      },
      "_N$disabledSprite": {
        "__uuid__": "7e95UXhv5HsoPEKDs4PKRF"
      },
      "_N$target": {
        "__id__": 11
      }
    },
    {
      "__type__": "cc.Node",
      "_name": "CancelButton",
      "_parent": {
        "__id__": 1
      },
      "_children": [
        {
          "__id__": 15
        }
      ],
      "_level": 3,
      "_components": [
        {
          "__id__": 17
        }
      ],
      "_prefab": {
        "__type__": "cc.PrefabInfo",
        "root": {
          "__id__": 1
        },
        "asset": {
          "__uuid__": "e3RLVqYxhID442gWjC3ugy"
        },
        "fileId": "a9a+tR48JBvpGyVh+6jVrq"
      },
      "_contentSize": {
        "__type__": "cc.Size",
        "width": 131,
        "height": 37
      },
      "_position": {
        "__type__": "cc.Vec3",
        "x": -80,
        "y": -130
      },
      "_scale": {
        "__type__": "cc.Vec3",
        "x": 1,
        "y": 1,
        "z": 1
      }
    },
    {
      "__type__": "cc.Node",
      "_name": "Background",
      "_parent": {
        "__id__": 14
      },
      "_children": [
        {
          "__id__": 16
        }
      ],
      "_level": 2,
      "_components": [
        {
          "__type__": "cc.Sprite",
          "node": {
            "__id__": 15
          },
          "_spriteFrame": {
            "__uuid__": "8bHCOg9/ZK9rb9nEArcWy8"
          },
          "_type": 1,
          "_sizeMode": 0
        },
        {
          "__type__": "cc.Widget",
          "node": {
            "__id__": 15
          },
          "alignMode": 0,
          "_alignFlags": 45,
          "_originalWidth": 100,
          "_originalHeight": 40
        }
      ],
      "_prefab": {
        "__type__": "cc.PrefabInfo",
        "root": {
          "__id__": 1
        },
        "asset": {
          "__uuid__": "e3RLVqYxhID442gWjC3ugy"
        },
        "fileId": "8fBnFb90RFHZxw+SVOF3ES"
      },
      "_color": {
        "__type__": "cc.Color",
        "r": 230,
        "g": 230,
        "b": 230
      },
      "_contentSize": {
        "__type__": "cc.Size",
        "width": 131,
        "height": 37
      },
      "_scale": {
        "__type__": "cc.Vec3",
        "x": 1,
        "y": 1,
        "z": 1
      }
    },
    {
      "__type__": "cc.Node",
      "_name": "Label",
      "_parent": {
        "__id__": 15
      },
      "_level": 3,
      "_components": [
        {
          "__type__": "cc.Label",
          "node": {
            "__id__": 16
          },
          "_useOriginalSize": false,
          "_string": "CANCEL",
          "_N$string": "CANCEL",
          "_fontSize": 20,
          "_enableWrapText": false,
          "_N$horizontalAlign": 1,
          "_N$verticalAlign": 1,
          "_N$overflow": 1
        },
        {
          "__type__": "cc.LabelOutline",
          "node": {
            "__id__": 16
          },
          "_color": {
            "__type__": "cc.Color"
          }
        }
      ],
      "_prefab": {
        "__type__": "cc.PrefabInfo",
        "root": {
          "__id__": 1
        },
        "asset": {
          "__uuid__": "e3RLVqYxhID442gWjC3ugy"
        },
        "fileId": "07OEJrkX9AnLMva2PWS4Jx"
      },
      "_contentSize": {
        "__type__": "cc.Size",
        "width": 100,
        "height": 40
      },
      "_scale": {
        "__type__": "cc.Vec3",
        "x": 1,
        "y": 1,
        "z": 1
      }
    },
    {
      "__type__": "cc.Button",
      "node": {
        "__id__": 14
      },
      "_N$transition": 2,
      "transition": 2,
      "_N$normalColor": {
        "__type__": "cc.Color",
        "r": 230,
        "g": 230,
        "b": 230
      },
      "_N$pressedColor": {
        "__type__": "cc.Color",
        "r": 200,
        "g": 200,
        "b": 200
      },
      "pressedColor": {
        "__type__": "cc.Color",
        "r": 200,
        "g": 200,
        "b": 200
      },
      "_N$disabledColor": {
        "__type__": "cc.Color",
        "r": 120,
        "g": 120,
        "b": 120,
        "a": 200
      },
      "_N$normalSprite": {
        "__uuid__": "8bHCOg9/ZK9rb9nEArcWy8"
      },
      "_N$pressedSprite": {
        "__uuid__": "cctGHEbQNJUqSTtEX7NUBC"
      },
      "pressedSprite": {
        "__uuid__": "cctGHEbQNJUqSTtEX7NUBC"
      },
      "_N$hoverSprite": {
        "__uuid__": "cctGHEbQNJUqSTtEX7NUBC"
      },
      "hoverSprite": {
        "__uuid__": "cctGHEbQNJUqSTtEX7NUBC"
      },
      "_N$disabledSprite": {
        "__uuid__": "7e95UXhv5HsoPEKDs4PKRF"
      },
      "_N$target": {
        "__id__": 15
      }
    },
    {
      "__type__": "cc.Node",
      "_name": "DialogFrame",
      "_parent": {
        "__id__": 1
      },
      "_level": 3,
      "_components": [
        {
          "__type__": "cc.Sprite",
          "node": {
            "__id__": 18
          },
          "_spriteFrame": {
            "__uuid__": "5fDJv3VO9He67xxNuEUnjO"
          },
          "_type": 1,
          "_sizeMode": 0
        }
      ],
      "_prefab": {
        "__type__": "cc.PrefabInfo",
        "root": {
          "__id__": 1
        },
        "asset": {
          "__uuid__": "e3RLVqYxhID442gWjC3ugy"
        },
        "fileId": "00zjqugIVPDIMtIcoy9XYA"
      },
      "_contentSize": {
        "__type__": "cc.Size",
        "width": 600,
        "height": 400
      },
      "_scale": {
        "__type__": "cc.Vec3",
        "x": 1,
        "y": 1,
        "z": 1
      }
    },
    {
      "__type__": "cc.Node",
      "_name": "DialogTitle",
      "_parent": {
        "__id__": 1
      },
      "_children": [
        {
          "__id__": 20
        }
      ],
      "_level": 3,
      "_components": [
        {
          "__type__": "cc.Sprite",
          "node": {
            "__id__": 19
          },
          "_spriteFrame": {
            "__uuid__": "163MTNIEpKYJEouffO8rCP"
          }
        }
      ],
      "_prefab": {
        "__type__": "cc.PrefabInfo",
        "root": {
          "__id__": 1
        },
        "asset": {
          "__uuid__": "e3RLVqYxhID442gWjC3ugy"
        },
        "fileId": "f52rW319JD2pYufBSoMsxE"
      },
      "_contentSize": {
        "__type__": "cc.Size",
        "width": 414,
        "height": 51
      },
      "_position": {
        "__type__": "cc.Vec3",
        "y": 184.491
      },
      "_scale": {
        "__type__": "cc.Vec3",
        "x": 1,
        "y": 1,
        "z": 1
      }
    },
    {
      "__type__": "cc.Node",
      "_name": "TitleLabel",
      "_parent": {
        "__id__": 19
      },
      "_level": 4,
      "_components": [
        {
          "__id__": 21
        },
        {
          "__type__": "cc.LabelOutline",
          "node": {
            "__id__": 20
          },
          "_color": {
            "__type__": "cc.Color"
          }
        }
      ],
      "_prefab": {
        "__type__": "cc.PrefabInfo",
        "root": {
          "__id__": 1
        },
        "asset": {
          "__uuid__": "e3RLVqYxhID442gWjC3ugy"
        },
        "fileId": "e63z0g4HpDUZ1cU2XC47Nq"
      },
      "_contentSize": {
        "__type__": "cc.Size",
        "width": 56.45,
        "height": 27.2
      },
      "_position": {
        "__type__": "cc.Vec3",
        "y": 0.68
      },
      "_scale": {
        "__type__": "cc.Vec3",
        "x": 1,
        "y": 1,
        "z": 1
      }
    },
    {
      "__type__": "cc.Label",
      "node": {
        "__id__": 20
      },
      "_useOriginalSize": false,
      "_string": "TITLE",
      "_N$string": "TITLE",
      "_fontSize": 20,
      "_lineHeight": 20,
      "_N$horizontalAlign": 1,
      "_N$verticalAlign": 1
    }
  ]
]