{
  "__type__": "cc.SpriteFrame",
  "content": {
    "name": "5006061000_01_adv",
    "texture": "a9C+x/+hlHzIqiiUhTJLTE",
    "rect": [
      0,
      0,
      260,
      260
    ],
    "offset": [
      0,
      0
    ],
    "originalSize": [
      260,
      260
    ],
    "capInsets": [
      0,
      0,
      0,
      0
    ]
  }
}