{
  "__type__": "cc.SpriteFrame",
  "content": {
    "name": "4004041700_01_stand",
    "texture": "73KoYIkK5IQqpgX8XVugp6",
    "rect": [
      0,
      1,
      1123,
      989
    ],
    "offset": [
      -0.5,
      0.5
    ],
    "originalSize": [
      1124,
      992
    ],
    "capInsets": [
      0,
      0,
      0,
      0
    ]
  }
}