{
  "__type__": "cc.SpriteFrame",
  "content": {
    "name": "4004041900_01_adv",
    "texture": "9eaksqwCFGCa90fHiNza0s",
    "rect": [
      0,
      46,
      260,
      214
    ],
    "offset": [
      0,
      -23
    ],
    "originalSize": [
      260,
      260
    ],
    "capInsets": [
      0,
      0,
      0,
      0
    ]
  }
}