[
  {
    "__type__": "cc.SpriteFrame",
    "content": {
      "name": "ScenarioPlayer_ButtonGroup_SettingButton_Hover",
      "texture": "a08oTRRktGYqmKnCkdxV8t",
      "rect": [
        0,
        0,
        56,
        56
      ],
      "offset": [
        0,
        0
      ],
      "originalSize": [
        56,
        56
      ],
      "capInsets": [
        0,
        0,
        0,
        0
      ]
    }
  },
  {
    "__type__": "cc.SpriteFrame",
    "content": {
      "name": "ScenarioPlayer_ButtonGroup_SettingButton_Normal",
      "texture": "e7tBg9H/VLv4Od79/x/I6J",
      "rect": [
        0,
        0,
        56,
        56
      ],
      "offset": [
        0,
        0
      ],
      "originalSize": [
        56,
        56
      ],
      "capInsets": [
        0,
        0,
        0,
        0
      ]
    }
  },
  {
    "__type__": "cc.SpriteFrame",
    "content": {
      "name": "ScenarioPlayer_ButtonGroup_FastButton_Normal",
      "texture": "00qCN1KDFOqJLuzfLOGvKz",
      "rect": [
        0,
        0,
        56,
        56
      ],
      "offset": [
        0,
        0
      ],
      "originalSize": [
        56,
        56
      ],
      "capInsets": [
        0,
        0,
        0,
        0
      ]
    }
  },
  [
    {
      "__type__": "cc.Prefab",
      "_name": "1566196866847",
      "data": {
        "__id__": 1
      }
    },
    {
      "__type__": "cc.Node",
      "_name": "StoryPiece",
      "_children": [
        {
          "__id__": 2
        },
        {
          "__id__": 3
        },
        {
          "__id__": 4
        },
        {
          "__id__": 5
        },
        {
          "__id__": 6
        },
        {
          "__id__": 13
        }
      ],
      "_level": 1,
      "_components": [
        {
          "__type__": "bdb458kLPpJxJi4DX7NH/Om",
          "node": {
            "__id__": 1
          }
        }
      ],
      "_prefab": {
        "__type__": "cc.PrefabInfo",
        "root": {
          "__id__": 1
        },
        "asset": {
          "__uuid__": "2arnoUEY1DN520a34OsQLG"
        },
        "fileId": "c3SNaiHGxMBL8J8iIelvng"
      },
      "_contentSize": {
        "__type__": "cc.Size",
        "width": 1280,
        "height": 720
      },
      "_scale": {
        "__type__": "cc.Vec3",
        "x": 1,
        "y": 1,
        "z": 1
      }
    },
    {
      "__type__": "cc.Node",
      "_name": "Background",
      "_parent": {
        "__id__": 1
      },
      "_level": 2,
      "_components": [
        {
          "__type__": "cc.Sprite",
          "node": {
            "__id__": 2
          },
          "_sizeMode": 0
        }
      ],
      "_prefab": {
        "__type__": "cc.PrefabInfo",
        "root": {
          "__id__": 1
        },
        "asset": {
          "__uuid__": "2arnoUEY1DN520a34OsQLG"
        },
        "fileId": "61+NSNqvpHyYmyYDQSB0Rr"
      },
      "_contentSize": {
        "__type__": "cc.Size",
        "width": 1280,
        "height": 720
      },
      "_scale": {
        "__type__": "cc.Vec3",
        "x": 1,
        "y": 1,
        "z": 1
      }
    },
    {
      "__type__": "cc.Node",
      "_name": "CharacterSample",
      "_parent": {
        "__id__": 1
      },
      "_level": 2,
      "_components": [
        {
          "__type__": "cc.Sprite",
          "node": {
            "__id__": 3
          },
          "_spriteFrame": {
            "__uuid__": "a4w4qMKl9EhpEIqOWpbPOD"
          },
          "_type": 1
        }
      ],
      "_prefab": {
        "__type__": "cc.PrefabInfo",
        "root": {
          "__id__": 1
        },
        "asset": {
          "__uuid__": "2arnoUEY1DN520a34OsQLG"
        },
        "fileId": "e3I+rgLyVNBaeIeplwIV3c"
      },
      "_contentSize": {
        "__type__": "cc.Size",
        "width": 718,
        "height": 1130
      },
      "_position": {
        "__type__": "cc.Vec3",
        "x": 320,
        "y": -285
      },
      "_scale": {
        "__type__": "cc.Vec3",
        "x": 1,
        "y": 1,
        "z": 1
      }
    },
    {
      "__type__": "cc.Node",
      "_name": "CharacterSample02",
      "_parent": {
        "__id__": 1
      },
      "_level": 2,
      "_components": [
        {
          "__type__": "cc.Sprite",
          "node": {
            "__id__": 4
          },
          "_spriteFrame": {
            "__uuid__": "a4w4qMKl9EhpEIqOWpbPOD"
          },
          "_type": 1
        },
        {
          "__type__": "d0adaNFRYFCzoEDqsv3eUKo",
          "node": {
            "__id__": 4
          },
          "actionTime": 0.5,
          "_recordData": {
            "x": -350,
            "y": -285,
            "opacity": 0,
            "active": true,
            "scaleX": 1,
            "scaleY": 1,
            "rotation": 0,
            "width": 718,
            "height": 1130
          },
          "_N$action": 1,
          "_N$preview": "1566197010832"
        }
      ],
      "_prefab": {
        "__type__": "cc.PrefabInfo",
        "root": {
          "__id__": 1
        },
        "asset": {
          "__uuid__": "2arnoUEY1DN520a34OsQLG"
        },
        "fileId": "c662MkUW9Fkp3Qip+rY80+"
      },
      "_opacity": 0,
      "_contentSize": {
        "__type__": "cc.Size",
        "width": 718,
        "height": 1130
      },
      "_position": {
        "__type__": "cc.Vec3",
        "x": -350,
        "y": -285
      },
      "_scale": {
        "__type__": "cc.Vec3",
        "x": 1,
        "y": 1,
        "z": 1
      }
    },
    {
      "__type__": "cc.Node",
      "_name": "CharaSpriteLeft",
      "_parent": {
        "__id__": 1
      },
      "_level": 2,
      "_components": [
        {
          "__type__": "cc.Sprite",
          "node": {
            "__id__": 5
          },
          "_sizeMode": 0
        }
      ],
      "_prefab": {
        "__type__": "cc.PrefabInfo",
        "root": {
          "__id__": 1
        },
        "asset": {
          "__uuid__": "2arnoUEY1DN520a34OsQLG"
        },
        "fileId": "a5+xTkNpZMoL3TwFeCPmig"
      },
      "_contentSize": {
        "__type__": "cc.Size",
        "width": 97,
        "height": 102
      },
      "_position": {
        "__type__": "cc.Vec3",
        "x": -543,
        "y": -255
      },
      "_scale": {
        "__type__": "cc.Vec3",
        "x": 1.7,
        "y": 1.7,
        "z": 1
      }
    },
    {
      "__type__": "cc.Node",
      "_name": "TalkWindow",
      "_parent": {
        "__id__": 1
      },
      "_children": [
        {
          "__id__": 7
        },
        {
          "__id__": 8
        },
        {
          "__id__": 10
        },
        {
          "__id__": 11
        },
        {
          "__id__": 12
        }
      ],
      "_level": 2,
      "_components": [
        {
          "__type__": "65757LGwZdBcJEd9tHbaPeG",
          "node": {
            "__id__": 6
          },
          "roleTalkFrame": {
            "__id__": 6
          },
          "word": {
            "__id__": 9
          },
          "_N$talkSpeed": 2,
          "_N$talkWord": "Chara02出現"
        }
      ],
      "_prefab": {
        "__type__": "cc.PrefabInfo",
        "root": {
          "__id__": 1
        },
        "asset": {
          "__uuid__": "2arnoUEY1DN520a34OsQLG"
        },
        "fileId": "03BbOPN0xH276UDfniLB81"
      },
      "_contentSize": {
        "__type__": "cc.Size",
        "width": 1280,
        "height": 231
      },
      "_position": {
        "__type__": "cc.Vec3",
        "y": -244.5
      },
      "_scale": {
        "__type__": "cc.Vec3",
        "x": 1,
        "y": 1,
        "z": 1
      }
    },
    {
      "__type__": "cc.Node",
      "_name": "Background",
      "_parent": {
        "__id__": 6
      },
      "_level": 3,
      "_components": [
        {
          "__type__": "cc.Sprite",
          "node": {
            "__id__": 7
          },
          "_spriteFrame": {
            "__uuid__": "98OlgtshhCirsXjlS+v2Lp"
          },
          "_type": 1
        }
      ],
      "_prefab": {
        "__type__": "cc.PrefabInfo",
        "root": {
          "__id__": 1
        },
        "asset": {
          "__uuid__": "2arnoUEY1DN520a34OsQLG"
        },
        "fileId": "a1xgkS+4hC9JWwia71LB93"
      },
      "_contentSize": {
        "__type__": "cc.Size",
        "width": 1280,
        "height": 199
      },
      "_position": {
        "__type__": "cc.Vec3",
        "y": -16
      },
      "_scale": {
        "__type__": "cc.Vec3",
        "x": 1,
        "y": 1,
        "z": 1
      }
    },
    {
      "__type__": "cc.Node",
      "_name": "MainTexta",
      "_parent": {
        "__id__": 6
      },
      "_level": 3,
      "_components": [
        {
          "__id__": 9
        }
      ],
      "_prefab": {
        "__type__": "cc.PrefabInfo",
        "root": {
          "__id__": 1
        },
        "asset": {
          "__uuid__": "2arnoUEY1DN520a34OsQLG"
        },
        "fileId": "93I3Hv4bFGDrDX/R7AS5+M"
      },
      "_contentSize": {
        "__type__": "cc.Size",
        "width": 620,
        "height": 115
      },
      "_anchorPoint": {
        "__type__": "cc.Vec2",
        "y": 0.5
      },
      "_position": {
        "__type__": "cc.Vec3",
        "x": -307,
        "y": -45
      },
      "_scale": {
        "__type__": "cc.Vec3",
        "x": 1,
        "y": 1,
        "z": 1
      }
    },
    {
      "__type__": "cc.Label",
      "node": {
        "__id__": 8
      },
      "_useOriginalSize": false,
      "_string": "Chara02出現",
      "_N$string": "Chara02出現",
      "_fontSize": 30,
      "_lineHeight": 35,
      "_N$overflow": 1
    },
    {
      "__type__": "cc.Node",
      "_name": "NameText",
      "_parent": {
        "__id__": 6
      },
      "_level": 3,
      "_components": [
        {
          "__type__": "cc.Label",
          "node": {
            "__id__": 10
          },
          "_string": "Chara02",
          "_N$string": "Chara02",
          "_fontSize": 26,
          "_lineHeight": 47,
          "_N$file": {
            "__uuid__": "de3i07JxhGe5TqZXUP4dTH"
          },
          "_isSystemFontUsed": false,
          "_N$verticalAlign": 1,
          "_N$overflow": 3
        }
      ],
      "_prefab": {
        "__type__": "cc.PrefabInfo",
        "root": {
          "__id__": 1
        },
        "asset": {
          "__uuid__": "2arnoUEY1DN520a34OsQLG"
        },
        "fileId": "a257YFAFNJD7y1fyb4ezfY"
      },
      "_color": {
        "__type__": "cc.Color",
        "r": 255,
        "g": 234,
        "b": 195
      },
      "_contentSize": {
        "__type__": "cc.Size",
        "width": 412,
        "height": 59.22
      },
      "_anchorPoint": {
        "__type__": "cc.Vec2",
        "y": 0.5
      },
      "_position": {
        "__type__": "cc.Vec3",
        "x": -308,
        "y": 32
      },
      "_scale": {
        "__type__": "cc.Vec3",
        "x": 1,
        "y": 1,
        "z": 1
      }
    },
    {
      "__type__": "cc.Node",
      "_name": "NextIcon",
      "_parent": {
        "__id__": 6
      },
      "_level": 3,
      "_components": [
        {
          "__type__": "cc.Sprite",
          "node": {
            "__id__": 11
          },
          "_spriteFrame": {
            "__uuid__": "87gChoT+tOcKTyiGbcVXsC"
          },
          "_type": 1
        }
      ],
      "_prefab": {
        "__type__": "cc.PrefabInfo",
        "root": {
          "__id__": 1
        },
        "asset": {
          "__uuid__": "2arnoUEY1DN520a34OsQLG"
        },
        "fileId": "fd75WQFqFOuqoyPo+XtF6W"
      },
      "_contentSize": {
        "__type__": "cc.Size",
        "width": 35,
        "height": 29
      },
      "_position": {
        "__type__": "cc.Vec3",
        "x": 338.5,
        "y": -67
      },
      "_scale": {
        "__type__": "cc.Vec3",
        "x": 1,
        "y": 1,
        "z": 1
      }
    },
    {
      "__type__": "cc.Node",
      "_name": "CharacterThumbnail",
      "_parent": {
        "__id__": 6
      },
      "_level": 3,
      "_components": [
        {
          "__type__": "cc.Sprite",
          "node": {
            "__id__": 12
          },
          "_spriteFrame": {
            "__uuid__": "63HCW+15VHC68SrJ6dLErv"
          },
          "_type": 1
        }
      ],
      "_prefab": {
        "__type__": "cc.PrefabInfo",
        "root": {
          "__id__": 1
        },
        "asset": {
          "__uuid__": "2arnoUEY1DN520a34OsQLG"
        },
        "fileId": "2aq8VDDbBB/aBIocb9dleS"
      },
      "_contentSize": {
        "__type__": "cc.Size",
        "width": 317,
        "height": 231
      },
      "_position": {
        "__type__": "cc.Vec3",
        "x": -480.5
      },
      "_scale": {
        "__type__": "cc.Vec3",
        "x": 1,
        "y": 1,
        "z": 1
      }
    },
    {
      "__type__": "cc.Node",
      "_name": "ButtonGroup",
      "_parent": {
        "__id__": 1
      },
      "_children": [
        {
          "__id__": 14
        },
        {
          "__id__": 18
        },
        {
          "__id__": 22
        },
        {
          "__id__": 25
        },
        {
          "__id__": 28
        },
        {
          "__id__": 31
        }
      ],
      "_level": 2,
      "_prefab": {
        "__type__": "cc.PrefabInfo",
        "root": {
          "__id__": 1
        },
        "asset": {
          "__uuid__": "2arnoUEY1DN520a34OsQLG"
        },
        "fileId": "8cgrpz7cNBmrD4KtMxNypg"
      },
      "_contentSize": {
        "__type__": "cc.Size",
        "width": 186,
        "height": 121
      },
      "_position": {
        "__type__": "cc.Vec3",
        "x": 517,
        "y": -271.5
      },
      "_scale": {
        "__type__": "cc.Vec3",
        "x": 1,
        "y": 1,
        "z": 1
      }
    },
    {
      "__type__": "cc.Node",
      "_name": "AutoButton",
      "_parent": {
        "__id__": 13
      },
      "_children": [
        {
          "__id__": 15
        },
        {
          "__id__": 16
        },
        {
          "__id__": 17
        }
      ],
      "_level": 1,
      "_components": [
        {
          "__type__": "cc.Button",
          "node": {
            "__id__": 14
          },
          "_N$transition": 1,
          "transition": 1,
          "_N$target": {
            "__id__": 15
          }
        }
      ],
      "_prefab": {
        "__type__": "cc.PrefabInfo",
        "root": {
          "__id__": 1
        },
        "asset": {
          "__uuid__": "2arnoUEY1DN520a34OsQLG"
        },
        "fileId": "5a8+qB695Kybv12GHbq1Y7"
      },
      "_color": {
        "__type__": "cc.Color",
        "r": 214,
        "g": 214,
        "b": 214
      },
      "_contentSize": {
        "__type__": "cc.Size",
        "width": 56,
        "height": 56
      },
      "_position": {
        "__type__": "cc.Vec3",
        "x": -65,
        "y": 32.5
      },
      "_scale": {
        "__type__": "cc.Vec3",
        "x": 1,
        "y": 1,
        "z": 1
      }
    },
    {
      "__type__": "cc.Node",
      "_name": "Normal",
      "_parent": {
        "__id__": 14
      },
      "_level": 1,
      "_components": [
        {
          "__type__": "cc.Sprite",
          "node": {
            "__id__": 15
          },
          "_spriteFrame": {
            "__uuid__": "82iJOfyBlBGIzIFjzdgpJv"
          },
          "_type": 1
        }
      ],
      "_prefab": {
        "__type__": "cc.PrefabInfo",
        "root": {
          "__id__": 1
        },
        "asset": {
          "__uuid__": "2arnoUEY1DN520a34OsQLG"
        },
        "fileId": "c2lpWAePpAe6x8eqzrwBec"
      },
      "_color": {
        "__type__": "cc.Color",
        "r": 214,
        "g": 214,
        "b": 214
      },
      "_contentSize": {
        "__type__": "cc.Size",
        "width": 56,
        "height": 56
      },
      "_scale": {
        "__type__": "cc.Vec3",
        "x": 1,
        "y": 1,
        "z": 1
      }
    },
    {
      "__type__": "cc.Node",
      "_name": "Hover",
      "_parent": {
        "__id__": 14
      },
      "_level": 1,
      "_components": [
        {
          "__type__": "cc.Sprite",
          "node": {
            "__id__": 16
          },
          "_spriteFrame": {
            "__uuid__": "f15QDAdctOHpCw2V1bWgrc"
          },
          "_type": 1
        }
      ],
      "_prefab": {
        "__type__": "cc.PrefabInfo",
        "root": {
          "__id__": 1
        },
        "asset": {
          "__uuid__": "2arnoUEY1DN520a34OsQLG"
        },
        "fileId": "53zZ4nJ1NB+bodwbDb7LWa"
      },
      "_contentSize": {
        "__type__": "cc.Size",
        "width": 56,
        "height": 56
      },
      "_scale": {
        "__type__": "cc.Vec3",
        "x": 1,
        "y": 1,
        "z": 1
      }
    },
    {
      "__type__": "cc.Node",
      "_name": "Active",
      "_parent": {
        "__id__": 14
      },
      "_level": 1,
      "_components": [
        {
          "__type__": "cc.Sprite",
          "node": {
            "__id__": 17
          },
          "_spriteFrame": {
            "__uuid__": "61sOTfQE1B34Rg9AZ22drc"
          },
          "_type": 1
        }
      ],
      "_prefab": {
        "__type__": "cc.PrefabInfo",
        "root": {
          "__id__": 1
        },
        "asset": {
          "__uuid__": "2arnoUEY1DN520a34OsQLG"
        },
        "fileId": "c2mqgg8oxGK7UjRgVVt3U5"
      },
      "_contentSize": {
        "__type__": "cc.Size",
        "width": 56,
        "height": 56
      },
      "_scale": {
        "__type__": "cc.Vec3",
        "x": 1,
        "y": 1,
        "z": 1
      }
    },
    {
      "__type__": "cc.Node",
      "_name": "FastButton",
      "_parent": {
        "__id__": 13
      },
      "_children": [
        {
          "__id__": 19
        },
        {
          "__id__": 20
        },
        {
          "__id__": 21
        }
      ],
      "_level": 1,
      "_components": [
        {
          "__type__": "cc.Button",
          "node": {
            "__id__": 18
          },
          "_N$transition": 1,
          "transition": 1,
          "_N$target": {
            "__id__": 19
          }
        }
      ],
      "_prefab": {
        "__type__": "cc.PrefabInfo",
        "root": {
          "__id__": 1
        },
        "asset": {
          "__uuid__": "2arnoUEY1DN520a34OsQLG"
        },
        "fileId": "556HQlFQVLjpHOdeIEdCEU"
      },
      "_color": {
        "__type__": "cc.Color",
        "r": 214,
        "g": 214,
        "b": 214
      },
      "_contentSize": {
        "__type__": "cc.Size",
        "width": 56,
        "height": 56
      },
      "_position": {
        "__type__": "cc.Vec3",
        "y": 32.5
      },
      "_scale": {
        "__type__": "cc.Vec3",
        "x": 1,
        "y": 1,
        "z": 1
      }
    },
    {
      "__type__": "cc.Node",
      "_name": "Normal",
      "_parent": {
        "__id__": 18
      },
      "_level": 1,
      "_components": [
        {
          "__type__": "cc.Sprite",
          "node": {
            "__id__": 19
          },
          "_spriteFrame": {
            "__uuid__": "27lEs9k7hF8Jx4htH5cMb0"
          },
          "_type": 1
        }
      ],
      "_prefab": {
        "__type__": "cc.PrefabInfo",
        "root": {
          "__id__": 1
        },
        "asset": {
          "__uuid__": "2arnoUEY1DN520a34OsQLG"
        },
        "fileId": "ceEpFvnadFbauttvvUM5NQ"
      },
      "_color": {
        "__type__": "cc.Color",
        "r": 214,
        "g": 214,
        "b": 214
      },
      "_contentSize": {
        "__type__": "cc.Size",
        "width": 56,
        "height": 56
      },
      "_scale": {
        "__type__": "cc.Vec3",
        "x": 1,
        "y": 1,
        "z": 1
      }
    },
    {
      "__type__": "cc.Node",
      "_name": "Hover",
      "_parent": {
        "__id__": 18
      },
      "_level": 1,
      "_components": [
        {
          "__type__": "cc.Sprite",
          "node": {
            "__id__": 20
          },
          "_spriteFrame": {
            "__uuid__": "4byi9JH8ZOxKsM0f1TPQwe"
          },
          "_type": 1
        }
      ],
      "_prefab": {
        "__type__": "cc.PrefabInfo",
        "root": {
          "__id__": 1
        },
        "asset": {
          "__uuid__": "2arnoUEY1DN520a34OsQLG"
        },
        "fileId": "35h8peVrlHA7h4PAXAYFHM"
      },
      "_contentSize": {
        "__type__": "cc.Size",
        "width": 56,
        "height": 56
      },
      "_scale": {
        "__type__": "cc.Vec3",
        "x": 1,
        "y": 1,
        "z": 1
      }
    },
    {
      "__type__": "cc.Node",
      "_name": "Active",
      "_parent": {
        "__id__": 18
      },
      "_level": 1,
      "_components": [
        {
          "__type__": "cc.Sprite",
          "node": {
            "__id__": 21
          },
          "_spriteFrame": {
            "__uuid__": "a3Ajs4OLZF9YaqcDa41uG2"
          },
          "_type": 1
        }
      ],
      "_prefab": {
        "__type__": "cc.PrefabInfo",
        "root": {
          "__id__": 1
        },
        "asset": {
          "__uuid__": "2arnoUEY1DN520a34OsQLG"
        },
        "fileId": "adadKHnXBBk7UyoXSy3AFF"
      },
      "_contentSize": {
        "__type__": "cc.Size",
        "width": 56,
        "height": 56
      },
      "_scale": {
        "__type__": "cc.Vec3",
        "x": 1,
        "y": 1,
        "z": 1
      }
    },
    {
      "__type__": "cc.Node",
      "_name": "SkipButton",
      "_parent": {
        "__id__": 13
      },
      "_children": [
        {
          "__id__": 23
        },
        {
          "__id__": 24
        }
      ],
      "_level": 1,
      "_components": [
        {
          "__type__": "cc.Button",
          "node": {
            "__id__": 22
          },
          "_N$transition": 1,
          "transition": 1,
          "_N$target": {
            "__id__": 23
          }
        }
      ],
      "_prefab": {
        "__type__": "cc.PrefabInfo",
        "root": {
          "__id__": 1
        },
        "asset": {
          "__uuid__": "2arnoUEY1DN520a34OsQLG"
        },
        "fileId": "77RnmvyoBCZYjf80Urr6zp"
      },
      "_color": {
        "__type__": "cc.Color",
        "r": 214,
        "g": 214,
        "b": 214
      },
      "_contentSize": {
        "__type__": "cc.Size",
        "width": 56,
        "height": 56
      },
      "_position": {
        "__type__": "cc.Vec3",
        "x": 65,
        "y": 32.5
      },
      "_scale": {
        "__type__": "cc.Vec3",
        "x": 1,
        "y": 1,
        "z": 1
      }
    },
    {
      "__type__": "cc.Node",
      "_name": "Normal",
      "_parent": {
        "__id__": 22
      },
      "_level": 1,
      "_components": [
        {
          "__type__": "cc.Sprite",
          "node": {
            "__id__": 23
          },
          "_spriteFrame": {
            "__uuid__": "b7cc9+r35OurCA8s5B9Duu"
          },
          "_type": 1
        }
      ],
      "_prefab": {
        "__type__": "cc.PrefabInfo",
        "root": {
          "__id__": 1
        },
        "asset": {
          "__uuid__": "2arnoUEY1DN520a34OsQLG"
        },
        "fileId": "1bXB/GbVhJzYQgNeYDXAnd"
      },
      "_color": {
        "__type__": "cc.Color",
        "r": 214,
        "g": 214,
        "b": 214
      },
      "_contentSize": {
        "__type__": "cc.Size",
        "width": 56,
        "height": 56
      },
      "_scale": {
        "__type__": "cc.Vec3",
        "x": 1,
        "y": 1,
        "z": 1
      }
    },
    {
      "__type__": "cc.Node",
      "_name": "Hover",
      "_parent": {
        "__id__": 22
      },
      "_level": 1,
      "_components": [
        {
          "__type__": "cc.Sprite",
          "node": {
            "__id__": 24
          },
          "_spriteFrame": {
            "__uuid__": "9dpmHn+8BDLJln+BnT9BbQ"
          },
          "_type": 1
        }
      ],
      "_prefab": {
        "__type__": "cc.PrefabInfo",
        "root": {
          "__id__": 1
        },
        "asset": {
          "__uuid__": "2arnoUEY1DN520a34OsQLG"
        },
        "fileId": "d53fks/hZNz5yDLkRpbMVK"
      },
      "_contentSize": {
        "__type__": "cc.Size",
        "width": 56,
        "height": 56
      },
      "_scale": {
        "__type__": "cc.Vec3",
        "x": 1,
        "y": 1,
        "z": 1
      }
    },
    {
      "__type__": "cc.Node",
      "_name": "LogButton",
      "_parent": {
        "__id__": 13
      },
      "_children": [
        {
          "__id__": 26
        },
        {
          "__id__": 27
        }
      ],
      "_level": 1,
      "_components": [
        {
          "__type__": "cc.Button",
          "node": {
            "__id__": 25
          },
          "_N$transition": 1,
          "transition": 1,
          "_N$target": {
            "__id__": 26
          }
        }
      ],
      "_prefab": {
        "__type__": "cc.PrefabInfo",
        "root": {
          "__id__": 1
        },
        "asset": {
          "__uuid__": "2arnoUEY1DN520a34OsQLG"
        },
        "fileId": "2aKsojqsRJjLx/2cRoTmo/"
      },
      "_color": {
        "__type__": "cc.Color",
        "r": 214,
        "g": 214,
        "b": 214
      },
      "_contentSize": {
        "__type__": "cc.Size",
        "width": 56,
        "height": 56
      },
      "_position": {
        "__type__": "cc.Vec3",
        "x": -65,
        "y": -32.5
      },
      "_scale": {
        "__type__": "cc.Vec3",
        "x": 1,
        "y": 1,
        "z": 1
      }
    },
    {
      "__type__": "cc.Node",
      "_name": "Normal",
      "_parent": {
        "__id__": 25
      },
      "_level": 1,
      "_components": [
        {
          "__type__": "cc.Sprite",
          "node": {
            "__id__": 26
          },
          "_spriteFrame": {
            "__uuid__": "f7yURK+P1MNbT2le+2kudJ"
          },
          "_type": 1
        }
      ],
      "_prefab": {
        "__type__": "cc.PrefabInfo",
        "root": {
          "__id__": 1
        },
        "asset": {
          "__uuid__": "2arnoUEY1DN520a34OsQLG"
        },
        "fileId": "2eMveK4uxGlYBxJWvn9Wh9"
      },
      "_color": {
        "__type__": "cc.Color",
        "r": 214,
        "g": 214,
        "b": 214
      },
      "_contentSize": {
        "__type__": "cc.Size",
        "width": 56,
        "height": 56
      },
      "_scale": {
        "__type__": "cc.Vec3",
        "x": 1,
        "y": 1,
        "z": 1
      }
    },
    {
      "__type__": "cc.Node",
      "_name": "Hover",
      "_parent": {
        "__id__": 25
      },
      "_level": 1,
      "_components": [
        {
          "__type__": "cc.Sprite",
          "node": {
            "__id__": 27
          },
          "_spriteFrame": {
            "__uuid__": "a7oOX+/ltHSb/JhWrIEz5V"
          },
          "_type": 1
        }
      ],
      "_prefab": {
        "__type__": "cc.PrefabInfo",
        "root": {
          "__id__": 1
        },
        "asset": {
          "__uuid__": "2arnoUEY1DN520a34OsQLG"
        },
        "fileId": "afcN1q8M9AQachxKWxbKnv"
      },
      "_contentSize": {
        "__type__": "cc.Size",
        "width": 56,
        "height": 56
      },
      "_scale": {
        "__type__": "cc.Vec3",
        "x": 1,
        "y": 1,
        "z": 1
      }
    },
    {
      "__type__": "cc.Node",
      "_name": "SettingButton",
      "_parent": {
        "__id__": 13
      },
      "_children": [
        {
          "__id__": 29
        },
        {
          "__id__": 30
        }
      ],
      "_level": 1,
      "_components": [
        {
          "__type__": "cc.Button",
          "node": {
            "__id__": 28
          },
          "_N$transition": 1,
          "transition": 1,
          "_N$target": {
            "__id__": 29
          }
        }
      ],
      "_prefab": {
        "__type__": "cc.PrefabInfo",
        "root": {
          "__id__": 1
        },
        "asset": {
          "__uuid__": "2arnoUEY1DN520a34OsQLG"
        },
        "fileId": "b9IUlvSDxEO6j5k8TU/fug"
      },
      "_color": {
        "__type__": "cc.Color",
        "r": 214,
        "g": 214,
        "b": 214
      },
      "_contentSize": {
        "__type__": "cc.Size",
        "width": 56,
        "height": 56
      },
      "_position": {
        "__type__": "cc.Vec3",
        "y": -32.5
      },
      "_scale": {
        "__type__": "cc.Vec3",
        "x": 1,
        "y": 1,
        "z": 1
      }
    },
    {
      "__type__": "cc.Node",
      "_name": "Normal",
      "_parent": {
        "__id__": 28
      },
      "_level": 1,
      "_components": [
        {
          "__type__": "cc.Sprite",
          "node": {
            "__id__": 29
          },
          "_spriteFrame": {
            "__uuid__": "17G+QPy3BOn5oCvSVIfrKL"
          },
          "_type": 1
        }
      ],
      "_prefab": {
        "__type__": "cc.PrefabInfo",
        "root": {
          "__id__": 1
        },
        "asset": {
          "__uuid__": "2arnoUEY1DN520a34OsQLG"
        },
        "fileId": "e7005Jhu9H4bYpXKxV9Upt"
      },
      "_color": {
        "__type__": "cc.Color",
        "r": 214,
        "g": 214,
        "b": 214
      },
      "_contentSize": {
        "__type__": "cc.Size",
        "width": 56,
        "height": 56
      },
      "_scale": {
        "__type__": "cc.Vec3",
        "x": 1,
        "y": 1,
        "z": 1
      }
    },
    {
      "__type__": "cc.Node",
      "_name": "Hover",
      "_parent": {
        "__id__": 28
      },
      "_level": 1,
      "_components": [
        {
          "__type__": "cc.Sprite",
          "node": {
            "__id__": 30
          },
          "_spriteFrame": {
            "__uuid__": "03cdjHGv5B54ccRGT4pyTx"
          },
          "_type": 1
        }
      ],
      "_prefab": {
        "__type__": "cc.PrefabInfo",
        "root": {
          "__id__": 1
        },
        "asset": {
          "__uuid__": "2arnoUEY1DN520a34OsQLG"
        },
        "fileId": "edZY9030RPKJDlpuvDnris"
      },
      "_contentSize": {
        "__type__": "cc.Size",
        "width": 56,
        "height": 56
      },
      "_scale": {
        "__type__": "cc.Vec3",
        "x": 1,
        "y": 1,
        "z": 1
      }
    },
    {
      "__type__": "cc.Node",
      "_name": "CloseButton",
      "_parent": {
        "__id__": 13
      },
      "_children": [
        {
          "__id__": 32
        },
        {
          "__id__": 33
        }
      ],
      "_level": 1,
      "_components": [
        {
          "__type__": "cc.Button",
          "node": {
            "__id__": 31
          },
          "_N$transition": 1,
          "transition": 1,
          "_N$target": {
            "__id__": 32
          }
        }
      ],
      "_prefab": {
        "__type__": "cc.PrefabInfo",
        "root": {
          "__id__": 1
        },
        "asset": {
          "__uuid__": "2arnoUEY1DN520a34OsQLG"
        },
        "fileId": "d0/agEkJ5NOLpuv/x1cb1H"
      },
      "_color": {
        "__type__": "cc.Color",
        "r": 214,
        "g": 214,
        "b": 214
      },
      "_contentSize": {
        "__type__": "cc.Size",
        "width": 56,
        "height": 56
      },
      "_position": {
        "__type__": "cc.Vec3",
        "x": 65,
        "y": -32.5
      },
      "_scale": {
        "__type__": "cc.Vec3",
        "x": 1,
        "y": 1,
        "z": 1
      }
    },
    {
      "__type__": "cc.Node",
      "_name": "Normal",
      "_parent": {
        "__id__": 31
      },
      "_level": 1,
      "_components": [
        {
          "__type__": "cc.Sprite",
          "node": {
            "__id__": 32
          },
          "_spriteFrame": {
            "__uuid__": "8c0kb3gPpFFKmJHNNtT9Cj"
          },
          "_type": 1
        }
      ],
      "_prefab": {
        "__type__": "cc.PrefabInfo",
        "root": {
          "__id__": 1
        },
        "asset": {
          "__uuid__": "2arnoUEY1DN520a34OsQLG"
        },
        "fileId": "8bvt2hzjhJfKXQNmh48DMj"
      },
      "_color": {
        "__type__": "cc.Color",
        "r": 214,
        "g": 214,
        "b": 214
      },
      "_contentSize": {
        "__type__": "cc.Size",
        "width": 56,
        "height": 56
      },
      "_scale": {
        "__type__": "cc.Vec3",
        "x": 1,
        "y": 1,
        "z": 1
      }
    },
    {
      "__type__": "cc.Node",
      "_name": "Hover",
      "_parent": {
        "__id__": 31
      },
      "_level": 1,
      "_components": [
        {
          "__type__": "cc.Sprite",
          "node": {
            "__id__": 33
          },
          "_spriteFrame": {
            "__uuid__": "3eDylmNLNJ+I1JCg2SaLEH"
          },
          "_type": 1
        }
      ],
      "_prefab": {
        "__type__": "cc.PrefabInfo",
        "root": {
          "__id__": 1
        },
        "asset": {
          "__uuid__": "2arnoUEY1DN520a34OsQLG"
        },
        "fileId": "d7PHerO0NHNZ+JjkioX8GU"
      },
      "_contentSize": {
        "__type__": "cc.Size",
        "width": 56,
        "height": 56
      },
      "_scale": {
        "__type__": "cc.Vec3",
        "x": 1,
        "y": 1,
        "z": 1
      }
    }
  ],
  {
    "__type__": "cc.SpriteFrame",
    "content": {
      "name": "ScenarioPlayer_ButtonGroup_CloseButton_Hover",
      "texture": "71rMUWDOFFOKql1JIMq1Qi",
      "rect": [
        0,
        0,
        56,
        56
      ],
      "offset": [
        0,
        0
      ],
      "originalSize": [
        56,
        56
      ],
      "capInsets": [
        0,
        0,
        0,
        0
      ]
    }
  },
  {
    "__type__": "cc.SpriteFrame",
    "content": {
      "name": "ScenarioPlayer_ButtonGroup_FastButton_Hover",
      "texture": "d7UOyiU1JPrZQMao19Fka+",
      "rect": [
        0,
        0,
        56,
        56
      ],
      "offset": [
        0,
        0
      ],
      "originalSize": [
        56,
        56
      ],
      "capInsets": [
        0,
        0,
        0,
        0
      ]
    }
  },
  {
    "__type__": "cc.SpriteFrame",
    "content": {
      "name": "ScenarioPlayer_ButtonGroup_AutoButton_Active",
      "texture": "bbjW8GzcJNS49VZF7IwasI",
      "rect": [
        0,
        0,
        56,
        56
      ],
      "offset": [
        0,
        0
      ],
      "originalSize": [
        56,
        56
      ],
      "capInsets": [
        0,
        0,
        0,
        0
      ]
    }
  },
  {
    "__type__": "cc.SpriteFrame",
    "content": {
      "name": "ScenarioPlayer_TalkWindow_CharacterThumbnail",
      "texture": "10kmPNwyBJGp4b3MzHqodI",
      "rect": [
        0,
        0,
        317,
        231
      ],
      "offset": [
        0,
        0
      ],
      "originalSize": [
        317,
        231
      ],
      "capInsets": [
        0,
        0,
        0,
        0
      ]
    }
  },
  {
    "__type__": "cc.SpriteFrame",
    "content": {
      "name": "ScenarioPlayer_ButtonGroup_AutoButton_Normal",
      "texture": "d2i5eIqeBMk7tewz/UNjvH",
      "rect": [
        0,
        0,
        56,
        56
      ],
      "offset": [
        0,
        0
      ],
      "originalSize": [
        56,
        56
      ],
      "capInsets": [
        0,
        0,
        0,
        0
      ]
    }
  },
  {
    "__type__": "cc.SpriteFrame",
    "content": {
      "name": "ScenarioPlayer_TalkWindow_NextIcon",
      "texture": "a5EkAUKhFAWLL4VPWsNUNu",
      "rect": [
        0,
        0,
        35,
        29
      ],
      "offset": [
        0,
        0
      ],
      "originalSize": [
        35,
        29
      ],
      "capInsets": [
        0,
        0,
        0,
        0
      ]
    }
  },
  {
    "__type__": "cc.SpriteFrame",
    "content": {
      "name": "ScenarioPlayer_ButtonGroup_CloseButton_Normal",
      "texture": "d50v22sf9KE69gUl8EaMRd",
      "rect": [
        0,
        0,
        56,
        56
      ],
      "offset": [
        0,
        0
      ],
      "originalSize": [
        56,
        56
      ],
      "capInsets": [
        0,
        0,
        0,
        0
      ]
    }
  },
  {
    "__type__": "cc.SpriteFrame",
    "content": {
      "name": "ScenarioPlayer_TalkWindow_Background",
      "texture": "f6znTt6GlMupu/W+ptIwIk",
      "rect": [
        0,
        0,
        322,
        199
      ],
      "offset": [
        0,
        0
      ],
      "originalSize": [
        322,
        199
      ],
      "capInsets": [
        264,
        0,
        56,
        0
      ]
    }
  },
  {
    "__type__": "cc.SpriteFrame",
    "content": {
      "name": "ScenarioPlayer_ButtonGroup_SkipButton_Hover",
      "texture": "89OZ1ref9PupO3sUP8uXbP",
      "rect": [
        0,
        0,
        56,
        56
      ],
      "offset": [
        0,
        0
      ],
      "originalSize": [
        56,
        56
      ],
      "capInsets": [
        0,
        0,
        0,
        0
      ]
    }
  },
  {
    "__type__": "cc.SpriteFrame",
    "content": {
      "name": "ScenarioPlayer_ButtonGroup_FastButton_Active",
      "texture": "a7AgxNAQxGHZW0eu0KdEt9",
      "rect": [
        0,
        0,
        56,
        56
      ],
      "offset": [
        0,
        0
      ],
      "originalSize": [
        56,
        56
      ],
      "capInsets": [
        0,
        0,
        0,
        0
      ]
    }
  },
  {
    "__type__": "cc.SpriteFrame",
    "content": {
      "name": "ScenarioPlayer_CharacterSample",
      "texture": "43bT6MlHRA/pP98W0e5F0b",
      "rect": [
        0,
        0,
        718,
        1130
      ],
      "offset": [
        0,
        0
      ],
      "originalSize": [
        718,
        1130
      ],
      "capInsets": [
        0,
        0,
        0,
        0
      ]
    }
  },
  {
    "__type__": "cc.SpriteFrame",
    "content": {
      "name": "ScenarioPlayer_ButtonGroup_LogButton_Hover",
      "texture": "0cdi9w1FJHoqBYYWagIoPZ",
      "rect": [
        0,
        0,
        47,
        56
      ],
      "offset": [
        0,
        0
      ],
      "originalSize": [
        47,
        56
      ],
      "capInsets": [
        22,
        0,
        23,
        0
      ]
    }
  },
  {
    "__type__": "cc.SpriteFrame",
    "content": {
      "name": "ScenarioPlayer_ButtonGroup_SkipButton_Normal",
      "texture": "30yJ0ukFZJ5p6GUDwOcXw4",
      "rect": [
        0,
        0,
        56,
        56
      ],
      "offset": [
        0,
        0
      ],
      "originalSize": [
        56,
        56
      ],
      "capInsets": [
        0,
        0,
        0,
        0
      ]
    }
  },
  {
    "__type__": "cc.SpriteFrame",
    "content": {
      "name": "ScenarioPlayer_ButtonGroup_AutoButton_Hover",
      "texture": "8dofA49GhFP7p0lp9eiBgM",
      "rect": [
        0,
        0,
        56,
        56
      ],
      "offset": [
        0,
        0
      ],
      "originalSize": [
        56,
        56
      ],
      "capInsets": [
        0,
        0,
        0,
        0
      ]
    }
  },
  {
    "__type__": "cc.SpriteFrame",
    "content": {
      "name": "ScenarioPlayer_ButtonGroup_LogButton_Normal",
      "texture": "cdkSGl1NlNVY9Bsw1Dq2pu",
      "rect": [
        0,
        0,
        47,
        56
      ],
      "offset": [
        0,
        0
      ],
      "originalSize": [
        47,
        56
      ],
      "capInsets": [
        22,
        0,
        23,
        0
      ]
    }
  }
]