[
  [
    {
      "__type__": "cc.Prefab",
      "_name": "Unit2UnitFace",
      "data": {
        "__id__": 1
      }
    },
    {
      "__type__": "cc.Node",
      "_name": "Unit2UnitFace",
      "_level": 1,
      "_components": [
        {
          "__type__": "cc.Sprite",
          "node": {
            "__id__": 1
          },
          "_spriteFrame": {
            "__uuid__": "bb/HtK7hJAHaJoLKqoSboH"
          }
        }
      ],
      "_prefab": {
        "__type__": "cc.PrefabInfo",
        "root": {
          "__id__": 1
        },
        "asset": {
          "__uuid__": "baKGe5deZOyK5VuL0oyqJ2"
        },
        "fileId": "8aLIjDUQpEGYET46VT/AJL"
      },
      "_contentSize": {
        "__type__": "cc.Size",
        "width": 96,
        "height": 102
      },
      "_scale": {
        "__type__": "cc.Vec3",
        "x": 1,
        "y": 1,
        "z": 1
      }
    }
  ],
  {
    "__type__": "cc.SpriteFrame",
    "content": {
      "name": "UnitFace",
      "texture": "0dtg9PIDlPMq7Z5RweLrf9",
      "rect": [
        10,
        5,
        96,
        102
      ],
      "offset": [
        3,
        -1
      ],
      "originalSize": [
        110,
        110
      ],
      "capInsets": [
        0,
        0,
        0,
        0
      ]
    }
  }
]