{
  "__type__": "cc.SpriteFrame",
  "content": {
    "name": "4004040800_00_face",
    "texture": "76KSPWAQlGApakU97QE9uz",
    "rect": [
      5,
      5,
      97,
      102
    ],
    "offset": [
      -1.5,
      -1
    ],
    "originalSize": [
      110,
      110
    ],
    "capInsets": [
      0,
      0,
      0,
      0
    ]
  }
}