{
  "__type__": "cc.SpriteFrame",
  "content": {
    "name": "bg_00330001",
    "texture": "3a5F97ySRLZqUc/0nOhrsT",
    "rect": [
      0,
      0,
      1400,
      1060
    ],
    "offset": [
      0,
      0
    ],
    "originalSize": [
      1400,
      1060
    ],
    "capInsets": [
      0,
      0,
      0,
      0
    ]
  }
}