{
  "__type__": "cc.SpriteFrame",
  "content": {
    "name": "4005051000_00_adv",
    "texture": "e82dsqrlRK54c81F1m2PkR",
    "rect": [
      0,
      31,
      242,
      229
    ],
    "offset": [
      -9,
      -15.5
    ],
    "originalSize": [
      260,
      260
    ],
    "capInsets": [
      0,
      0,
      0,
      0
    ]
  }
}