{
  "__type__": "cc.SpriteFrame",
  "content": {
    "name": "3006060300_00_face",
    "texture": "b5xovU/1pFTKM+5F3ITGu8",
    "rect": [
      17,
      5,
      89,
      102
    ],
    "offset": [
      6.5,
      -1
    ],
    "originalSize": [
      110,
      110
    ],
    "capInsets": [
      0,
      0,
      0,
      0
    ]
  }
}